%!PS-Adobe-3.0 EPSF-3.0 
%%BoundingBox: 0 0 454 255
%%Pages: 0
%%Creator: LibreOffice 4.2
%%Title: none
%%CreationDate: none
%%LanguageLevel: 2
%%EndComments
%%BeginProlog
%%BeginResource: procset SDRes-Prolog 1.0 0
/b4_inc_state save def
/dict_count countdictstack def
/op_count count 1 sub def
userdict begin
0 setgray 0 setlinecap 1 setlinewidth 0 setlinejoin 10 setmiterlimit[] 0 setdash newpath
/languagelevel where {pop languagelevel 1 ne {false setstrokeadjust false setoverprint} if} if
/bdef {bind def} bind def
/c {setrgbcolor} bdef
/l {neg lineto} bdef
/rl {neg rlineto} bdef
/lc {setlinecap} bdef
/lj {setlinejoin} bdef
/lw {setlinewidth} bdef
/ml {setmiterlimit} bdef
/ld {setdash} bdef
/m {neg moveto} bdef
/ct {6 2 roll neg 6 2 roll neg 6 2 roll neg curveto} bdef
/r {rotate} bdef
/t {neg translate} bdef
/s {scale} bdef
/sw {show} bdef
/gs {gsave} bdef
/gr {grestore} bdef
/f {findfont dup length dict begin
{1 index /FID ne {def} {pop pop} ifelse} forall /Encoding ISOLatin1Encoding def
currentdict end /NFont exch definefont pop /NFont findfont} bdef
/p {closepath} bdef
/sf {scalefont setfont} bdef
/ef {eofill}bdef
/pc {closepath stroke}bdef
/ps {stroke}bdef
/pum {matrix currentmatrix}bdef
/pom {setmatrix}bdef
/bs {/aString exch def /nXOfs exch def /nWidth exch def currentpoint nXOfs 0 rmoveto pum nWidth aString stringwidth pop div 1 scale aString show pom moveto} bdef
%%EndResource
%%EndProlog
%%BeginSetup
%%EndSetup
%%Page: 1 1
%%BeginPageSetup
%%EndPageSetup
pum
0.02837 0.02833 s 
0 -9000 t
/tm matrix currentmatrix def
tm setmatrix
-1367 -7253 t 
1 1 s 
1.000 1.000 1.000 c 9367 16420 m  1367 16420 l  1367 7421 l  17366 7421 l 
17366 16420 l  9367 16420 l  p ef
0 lw 1 lj 0.703 0.703 0.703 c 8928 15173 m  3875 15173 l  3875 8475 l  13980 8475 l 
13980 15173 l  8928 15173 l  pc
13980 15172 m  3875 15172 l  ps
13980 14055 m  3875 14055 l  ps
13980 12939 m  3875 12939 l  ps
13980 11823 m  3875 11823 l  ps
13980 10707 m  3875 10707 l  ps
13980 9590 m  3875 9590 l  ps
13980 8474 m  3875 8474 l  ps
3875 15322 m  3875 15172 l  ps
3875 15322 m  3875 15172 l  ps
4717 15322 m  4717 15172 l  ps
4717 15322 m  4717 15172 l  ps
5559 15322 m  5559 15172 l  ps
5559 15322 m  5559 15172 l  ps
6401 15322 m  6401 15172 l  ps
6401 15322 m  6401 15172 l  ps
7243 15322 m  7243 15172 l  ps
7243 15322 m  7243 15172 l  ps
8085 15322 m  8085 15172 l  ps
8085 15322 m  8085 15172 l  ps
8928 15322 m  8928 15172 l  ps
8928 15322 m  8928 15172 l  ps
9769 15322 m  9769 15172 l  ps
9769 15322 m  9769 15172 l  ps
10611 15322 m  10611 15172 l  ps
10611 15322 m  10611 15172 l  ps
11453 15322 m  11453 15172 l  ps
11453 15322 m  11453 15172 l  ps
12295 15322 m  12295 15172 l  ps
12295 15322 m  12295 15172 l  ps
13137 15322 m  13137 15172 l  ps
13137 15322 m  13137 15172 l  ps
13980 15322 m  13980 15172 l  ps
13980 15322 m  13980 15172 l  ps
3875 15172 m  13980 15172 l  ps
3725 15172 m  3875 15172 l  ps
3725 15172 m  3875 15172 l  ps
3725 14055 m  3875 14055 l  ps
3725 14055 m  3875 14055 l  ps
3725 12939 m  3875 12939 l  ps
3725 12939 m  3875 12939 l  ps
3725 11823 m  3875 11823 l  ps
3725 11823 m  3875 11823 l  ps
3725 10706 m  3875 10706 l  ps
3725 10706 m  3875 10706 l  ps
3725 9590 m  3875 9590 l  ps
3725 9590 m  3875 9590 l  ps
3725 8474 m  3875 8474 l  ps
3725 8474 m  3875 8474 l  ps
3875 15172 m  3875 8474 l  ps
0.003 0.273 0.527 c 13348 15172 m  13769 15172 l  13769 15039 l  13348 15039 l 
13348 15172 l  p ef
12506 15172 m  12927 15172 l  12927 15040 l  12506 15040 l  12506 15172 l 
p ef
11664 15172 m  12085 15172 l  12085 15040 l  11664 15040 l  11664 15172 l 
p ef
10821 15172 m  11242 15172 l  11242 15040 l  10821 15040 l  10821 15172 l 
p ef
9979 15172 m  10400 15172 l  10400 15040 l  9979 15040 l  9979 15172 l 
p ef
9138 15172 m  9558 15172 l  9558 15044 l  9138 15044 l  9138 15172 l  p ef
8296 15172 m  8717 15172 l  8717 15040 l  8296 15040 l  8296 15172 l  p ef
7454 15172 m  7875 15172 l  7875 15040 l  7454 15040 l  7454 15172 l  p ef
6612 15172 m  7033 15172 l  7033 15040 l  6612 15040 l  6612 15172 l  p ef
5769 15172 m  6190 15172 l  6190 15040 l  5769 15040 l  5769 15172 l  p ef
4927 15172 m  5348 15172 l  5348 15032 l  4927 15032 l  4927 15172 l  p ef
4085 15172 m  4506 15172 l  4506 15045 l  4085 15045 l  4085 15172 l  p ef
1.000 0.261 0.058 c 13348 15039 m  13769 15039 l  13769 14182 l  13348 14182 l 
13348 15039 l  p ef
12506 15040 m  12927 15040 l  12927 14191 l  12506 14191 l  12506 15040 l 
p ef
11664 15040 m  12085 15040 l  12085 14194 l  11664 14194 l  11664 15040 l 
p ef
10821 15040 m  11242 15040 l  11242 14178 l  10821 14178 l  10821 15040 l 
p ef
9979 15040 m  10400 15040 l  10400 14199 l  9979 14199 l  9979 15040 l 
p ef
9138 15044 m  9558 15044 l  9558 14247 l  9138 14247 l  9138 15044 l  p ef
8296 15040 m  8717 15040 l  8717 14231 l  8296 14231 l  8296 15040 l  p ef
7454 15040 m  7875 15040 l  7875 14270 l  7454 14270 l  7454 15040 l  p ef
6612 15040 m  7033 15040 l  7033 14270 l  6612 14270 l  6612 15040 l  p ef
5769 15040 m  6190 15040 l  6190 14309 l  5769 14309 l  5769 15040 l  p ef
4927 15032 m  5348 15032 l  5348 14290 l  4927 14290 l  4927 15032 l  p ef
4085 15045 m  4506 15045 l  4506 14335 l  4085 14335 l  4085 15045 l  p ef
1.000 0.828 0.128 c 13348 14182 m  13769 14182 l  13769 12685 l  13348 12685 l 
13348 14182 l  p ef
12506 14191 m  12927 14191 l  12927 12683 l  12506 12683 l  12506 14191 l 
p ef
11664 14194 m  12085 14194 l  12085 12673 l  11664 12673 l  11664 14194 l 
p ef
10821 14178 m  11242 14178 l  11242 12669 l  10821 12669 l  10821 14178 l 
p ef
9979 14199 m  10400 14199 l  10400 12706 l  9979 12706 l  9979 14199 l 
p ef
9138 14247 m  9558 14247 l  9558 12822 l  9138 12822 l  9138 14247 l  p ef
8296 14231 m  8717 14231 l  8717 12777 l  8296 12777 l  8296 14231 l  p ef
7454 14270 m  7875 14270 l  7875 12807 l  7454 12807 l  7454 14270 l  p ef
6612 14270 m  7033 14270 l  7033 12807 l  6612 12807 l  6612 14270 l  p ef
5769 14309 m  6190 14309 l  6190 12876 l  5769 12876 l  5769 14309 l  p ef
4927 14290 m  5348 14290 l  5348 12812 l  4927 12812 l  4927 14290 l  p ef
4085 14335 m  4506 14335 l  4506 12937 l  4085 12937 l  4085 14335 l  p ef
0.343 0.617 0.113 c 13348 12685 m  13769 12685 l  13769 12148 l  13348 12148 l 
13348 12685 l  p ef
12506 12683 m  12927 12683 l  12927 12154 l  12506 12154 l  12506 12683 l 
p ef
11664 12673 m  12085 12673 l  12085 12146 l  11664 12146 l  11664 12673 l 
p ef
10821 12669 m  11242 12669 l  11242 12144 l  10821 12144 l  10821 12669 l 
p ef
9979 12706 m  10400 12706 l  10400 12190 l  9979 12190 l  9979 12706 l 
p ef
9138 12822 m  9558 12822 l  9558 12327 l  9138 12327 l  9138 12822 l  p ef
8296 12777 m  8717 12777 l  8717 12268 l  8296 12268 l  8296 12777 l  p ef
7454 12807 m  7875 12807 l  7875 12305 l  7454 12305 l  7454 12807 l  p ef
6612 12807 m  7033 12807 l  7033 12305 l  6612 12305 l  6612 12807 l  p ef
5769 12876 m  6190 12876 l  6190 12379 l  5769 12379 l  5769 12876 l  p ef
4927 12812 m  5348 12812 l  5348 12308 l  4927 12308 l  4927 12812 l  p ef
4085 12937 m  4506 12937 l  4506 12456 l  4085 12456 l  4085 12937 l  p ef
0.496 0.003 0.132 c 13348 12148 m  13769 12148 l  13769 11644 l  13348 11644 l 
13348 12148 l  p ef
12506 12154 m  12927 12154 l  12927 11728 l  12506 11728 l  12506 12154 l 
p ef
11664 12146 m  12085 12146 l  12085 11746 l  11664 11746 l  11664 12146 l 
p ef
10821 12144 m  11242 12144 l  11242 11779 l  10821 11779 l  10821 12144 l 
p ef
9979 12190 m  10400 12190 l  10400 11850 l  9979 11850 l  9979 12190 l 
p ef
9138 12327 m  9558 12327 l  9558 12021 l  9138 12021 l  9138 12327 l  p ef
8296 12268 m  8717 12268 l  8717 11994 l  8296 11994 l  8296 12268 l  p ef
7454 12305 m  7875 12305 l  7875 12077 l  7454 12077 l  7454 12305 l  p ef
6612 12305 m  7033 12305 l  7033 12104 l  6612 12104 l  6612 12305 l  p ef
5769 12379 m  6190 12379 l  6190 12213 l  5769 12213 l  5769 12379 l  p ef
4927 12308 m  5348 12308 l  5348 12190 l  4927 12190 l  4927 12308 l  p ef
4085 12456 m  4506 12456 l  4506 12389 l  4085 12389 l  4085 12456 l  p ef
0.515 0.792 1.000 c 13348 11644 m  13769 11644 l  13769 10985 l  13348 10985 l 
13348 11644 l  p ef
12506 11728 m  12927 11728 l  12927 11070 l  12506 11070 l  12506 11728 l 
p ef
11664 11746 m  12085 11746 l  12085 11089 l  11664 11089 l  11664 11746 l 
p ef
10821 11779 m  11242 11779 l  11242 11126 l  10821 11126 l  10821 11779 l 
p ef
9979 11850 m  10400 11850 l  10400 11204 l  9979 11204 l  9979 11850 l 
p ef
9138 12021 m  9558 12021 l  9558 11399 l  9138 11399 l  9138 12021 l  p ef
8296 11994 m  8717 11994 l  8717 11358 l  8296 11358 l  8296 11994 l  p ef
7454 12077 m  7875 12077 l  7875 11530 l  7454 11530 l  7454 12077 l  p ef
6612 12104 m  7033 12104 l  7033 11660 l  6612 11660 l  6612 12104 l  p ef
5769 12213 m  6190 12213 l  6190 11750 l  5769 11750 l  5769 12213 l  p ef
4927 12190 m  5348 12190 l  5348 11676 l  4927 11676 l  4927 12190 l  p ef
4085 12389 m  4506 12389 l  4506 11854 l  4085 11854 l  4085 12389 l  p ef
79.995 lw 0.195 0.253 0.019 c 4296 10387 m  5138 10387 l  5980 10387 l 
6822 9841 l  7664 9841 l  8506 9841 l  9349 9841 l  10190 9841 l  11032 9841 l 
11874 9841 l  12716 9841 l  13558 9841 l  ps
pum
4071 15740 t
0.003 0.003 0.003 c 24 -226 m  24 -256 l  55 -256 l  55 -226 l  24 -226 l 
p
55 23 m  55 30 54 37 53 43 ct 52 49 49 54 46 59 ct 43 63 39 67 34 69 ct 28 72 22 73 13 73 ct 
9 73 6 73 2 73 ct -2 73 -5 73 -9 72 ct -9 48 l  -7 48 -5 48 -3 49 ct -1 49 1 49 2 49 ct 
6 49 10 48 13 47 ct 16 46 18 44 19 42 ct 21 39 22 36 23 32 ct 23 28 24 24 24 19 ct 
24 -187 l  55 -187 l  55 23 l  p ef
150 3 m  132 3 118 -2 108 -12 ct 99 -22 94 -35 94 -53 ct 94 -65 96 -75 101 -83 ct 
106 -91 112 -97 119 -102 ct 127 -106 135 -109 145 -111 ct 155 -113 165 -114 174 -114 ct 
216 -114 l  216 -124 l  216 -132 216 -138 214 -144 ct 212 -149 210 -154 207 -157 ct 
203 -161 199 -163 194 -165 ct 189 -166 183 -167 176 -167 ct 170 -167 165 -167 160 -166 ct 
155 -165 151 -163 148 -161 ct 144 -159 141 -156 139 -152 ct 137 -148 135 -143 135 -137 ct 
102 -140 l  103 -148 106 -154 109 -160 ct 112 -167 117 -172 123 -176 ct 128 -181 136 -184 145 -187 ct 
154 -189 164 -191 177 -191 ct 201 -191 218 -185 230 -175 ct 242 -164 248 -148 248 -128 ct 
248 -48 l  248 -38 249 -31 251 -27 ct 254 -22 258 -20 265 -20 ct 267 -20 269 -20 270 -20 ct 
272 -20 274 -21 275 -21 ct 275 -2 l  271 -1 268 0 264 0 ct 260 1 256 1 251 1 ct 
246 1 240 0 236 -1 ct 232 -3 229 -5 226 -8 ct 223 -11 221 -15 220 -20 ct 219 -25 218 -30 217 -36 ct 
216 -36 l  213 -30 209 -25 205 -20 ct 201 -15 197 -11 192 -8 ct 186 -4 180 -2 174 0 ct 
167 2 159 3 150 3 ct p
157 -20 m  167 -20 176 -22 183 -26 ct 191 -29 197 -34 202 -39 ct 207 -45 210 -51 213 -58 ct 
215 -64 216 -71 216 -77 ct 216 -92 l  182 -92 l  175 -92 168 -92 161 -91 ct 
154 -90 148 -88 143 -85 ct 138 -82 134 -78 130 -73 ct 127 -67 126 -61 126 -52 ct 
126 -42 129 -34 134 -29 ct 140 -23 147 -20 157 -20 ct p ef
407 0 m  407 -118 l  407 -127 407 -135 405 -141 ct 404 -147 402 -152 399 -156 ct 
396 -160 392 -162 387 -164 ct 382 -165 376 -166 369 -166 ct 361 -166 355 -165 349 -162 ct 
343 -160 338 -156 334 -151 ct 329 -146 326 -140 324 -133 ct 322 -126 321 -117 321 -108 ct 
321 0 l  289 0 l  289 -147 l  289 -151 289 -155 289 -159 ct 289 -163 289 -167 289 -171 ct 
289 -175 289 -178 289 -181 ct 289 -184 289 -186 288 -187 ct 318 -187 l  318 -186 318 -184 318 -182 ct 
318 -179 318 -176 319 -173 ct 319 -170 319 -167 319 -163 ct 319 -160 319 -157 319 -155 ct 
320 -155 l  323 -160 326 -165 329 -169 ct 333 -174 337 -177 342 -180 ct 347 -183 352 -186 358 -188 ct 
364 -189 371 -190 379 -190 ct 390 -190 399 -189 406 -186 ct 413 -184 420 -180 424 -174 ct 
429 -169 433 -162 435 -154 ct 437 -146 438 -136 438 -124 ct 438 0 l  407 0 l 
p ef
pom
pum
4900 15740 t
62 -164 m  62 -1 l  31 -1 l  31 -164 l  5 -164 l  5 -187 l  31 -187 l 
31 -208 l  31 -215 32 -221 33 -227 ct 34 -233 37 -238 40 -242 ct 43 -246 48 -250 54 -252 ct 
60 -255 67 -256 77 -256 ct 80 -256 84 -256 88 -255 ct 92 -255 96 -255 99 -254 ct 
99 -230 l  97 -231 94 -231 92 -231 ct 89 -232 87 -232 85 -232 ct 80 -232 76 -231 74 -230 ct 
71 -229 68 -227 67 -224 ct 65 -222 64 -219 63 -216 ct 63 -212 62 -208 62 -204 ct 
62 -187 l  99 -187 l  99 -164 l  62 -164 l  p ef
154 -87 m  154 -77 155 -68 157 -60 ct 159 -52 162 -45 166 -39 ct 170 -33 175 -28 182 -25 ct 
189 -22 196 -20 206 -20 ct 219 -20 230 -23 238 -28 ct 246 -34 252 -41 254 -49 ct 
282 -41 l  280 -36 277 -31 273 -26 ct 270 -20 265 -16 259 -11 ct 254 -7 246 -4 237 -1 ct 
229 2 218 3 206 3 ct 178 3 157 -5 143 -22 ct 128 -38 121 -62 121 -95 ct 121 -112 123 -127 128 -139 ct 
132 -151 138 -161 145 -169 ct 153 -176 162 -182 172 -185 ct 182 -188 193 -190 204 -190 ct 
220 -190 233 -187 244 -182 ct 254 -177 263 -170 269 -162 ct 275 -153 280 -142 283 -130 ct 
285 -118 287 -105 287 -91 ct 287 -87 l  154 -87 l  p
255 -111 m  253 -130 248 -145 240 -154 ct 231 -163 219 -167 204 -167 ct 199 -167 193 -166 188 -165 ct 
182 -163 177 -160 172 -156 ct 167 -152 163 -146 160 -139 ct 156 -131 154 -122 154 -111 ct 
255 -111 l  p ef
473 -94 m  473 -29 450 3 404 3 ct 390 3 378 0 369 -5 ct 359 -10 352 -18 346 -29 ct 
345 -29 l  345 -26 345 -23 345 -20 ct 345 -17 345 -14 345 -11 ct 345 -8 344 -6 344 -4 ct 
344 -2 344 -1 344 0 ct 314 0 l  314 -1 314 -3 314 -5 ct 314 -8 314 -11 314 -14 ct 
315 -18 315 -22 315 -26 ct 315 -30 315 -34 315 -39 ct 315 -256 l  346 -256 l 
346 -183 l  346 -180 346 -176 346 -173 ct 346 -170 346 -167 345 -165 ct 345 -162 345 -159 345 -157 ct 
346 -157 l  352 -169 359 -177 369 -182 ct 378 -187 390 -190 404 -190 ct 427 -190 445 -182 456 -166 ct 
467 -150 473 -126 473 -94 ct p
440 -93 m  440 -106 439 -117 438 -126 ct 436 -136 433 -143 430 -149 ct 426 -155 422 -159 416 -162 ct 
411 -165 404 -166 396 -166 ct 388 -166 381 -165 374 -162 ct 368 -159 363 -155 359 -149 ct 
354 -144 351 -136 349 -126 ct 347 -117 346 -105 346 -91 ct 346 -78 347 -67 349 -58 ct 
351 -49 354 -42 359 -36 ct 363 -30 368 -26 374 -24 ct 380 -21 388 -20 396 -20 ct 
403 -20 410 -21 415 -24 ct 421 -27 425 -31 429 -37 ct 433 -42 435 -50 437 -59 ct 
439 -69 440 -80 440 -93 ct p ef
pom
pum
5689 15740 t
132 0 m  132 -118 l  132 -127 132 -135 131 -141 ct 130 -147 128 -152 125 -156 ct 
122 -160 119 -162 114 -164 ct 110 -165 105 -166 98 -166 ct 92 -166 86 -165 80 -162 ct 
75 -160 71 -156 67 -151 ct 63 -146 60 -140 58 -133 ct 56 -126 55 -117 55 -108 ct 
55 0 l  24 0 l  24 -147 l  24 -151 24 -155 24 -159 ct 24 -163 24 -167 24 -171 ct 
24 -175 24 -178 24 -181 ct 24 -184 24 -186 23 -187 ct 53 -187 l  53 -186 53 -184 53 -182 ct 
53 -179 53 -176 54 -173 ct 54 -170 54 -167 54 -163 ct 54 -160 54 -157 54 -155 ct 
55 -155 l  57 -160 60 -165 64 -169 ct 67 -174 71 -177 75 -180 ct 79 -183 84 -186 90 -188 ct 
95 -189 102 -190 109 -190 ct 123 -190 134 -187 143 -182 ct 151 -176 157 -167 160 -155 ct 
160 -155 l  163 -160 166 -165 170 -169 ct 173 -174 177 -177 182 -180 ct 186 -183 191 -186 197 -188 ct 
203 -189 209 -190 217 -190 ct 226 -190 234 -189 241 -186 ct 248 -184 254 -180 258 -174 ct 
262 -169 266 -162 268 -154 ct 270 -146 271 -136 271 -124 ct 271 0 l  240 0 l 
240 -118 l  240 -127 240 -135 238 -141 ct 237 -147 235 -152 233 -156 ct 230 -160 226 -162 222 -164 ct 
218 -165 212 -166 206 -166 ct 199 -166 194 -165 188 -162 ct 183 -160 178 -156 175 -151 ct 
171 -147 168 -141 166 -133 ct 164 -126 163 -118 163 -108 ct 163 0 l  132 0 l 
p ef
362 3 m  344 3 330 -2 320 -12 ct 311 -22 306 -35 306 -53 ct 306 -65 308 -75 313 -83 ct 
318 -91 324 -97 331 -102 ct 339 -106 347 -109 357 -111 ct 367 -113 377 -114 386 -114 ct 
428 -114 l  428 -124 l  428 -132 428 -138 426 -144 ct 424 -149 422 -154 419 -157 ct 
415 -161 411 -163 406 -165 ct 401 -166 395 -167 388 -167 ct 382 -167 377 -167 372 -166 ct 
367 -165 363 -163 360 -161 ct 356 -159 353 -156 351 -152 ct 349 -148 347 -143 347 -137 ct 
314 -140 l  315 -148 318 -154 321 -160 ct 324 -167 329 -172 335 -176 ct 340 -181 348 -184 357 -187 ct 
366 -189 376 -191 389 -191 ct 413 -191 430 -185 442 -175 ct 454 -164 460 -148 460 -128 ct 
460 -48 l  460 -38 461 -31 463 -27 ct 466 -22 470 -20 477 -20 ct 479 -20 481 -20 482 -20 ct 
484 -20 486 -21 487 -21 ct 487 -2 l  483 -1 480 0 476 0 ct 472 1 468 1 463 1 ct 
458 1 452 0 448 -1 ct 444 -3 441 -5 438 -8 ct 435 -11 433 -15 432 -20 ct 431 -25 430 -30 429 -36 ct 
428 -36 l  425 -30 421 -25 417 -20 ct 413 -15 409 -11 404 -8 ct 398 -4 392 -2 386 0 ct 
379 2 371 3 362 3 ct p
369 -20 m  379 -20 388 -22 395 -26 ct 403 -29 409 -34 414 -39 ct 419 -45 422 -51 425 -58 ct 
427 -64 428 -71 428 -77 ct 428 -92 l  394 -92 l  387 -92 380 -92 373 -91 ct 
366 -90 360 -88 355 -85 ct 350 -82 346 -78 342 -73 ct 339 -67 338 -61 338 -52 ct 
338 -42 341 -34 346 -29 ct 352 -23 359 -20 369 -20 ct p ef
500 0 m  500 -143 l  500 -147 500 -151 500 -155 ct 500 -159 500 -163 500 -167 ct 
500 -171 500 -174 500 -178 ct 500 -181 500 -184 499 -187 ct 529 -187 l  529 -184 529 -181 529 -178 ct 
529 -174 530 -171 530 -167 ct 530 -164 530 -160 530 -157 ct 530 -154 530 -151 530 -148 ct 
531 -148 l  533 -156 535 -162 538 -167 ct 540 -172 543 -177 547 -180 ct 550 -183 554 -186 558 -188 ct 
563 -189 569 -190 575 -190 ct 578 -190 580 -190 582 -189 ct 585 -189 586 -189 588 -188 ct 
588 -160 l  586 -160 583 -161 580 -161 ct 578 -161 575 -162 571 -162 ct 564 -162 558 -160 553 -157 ct 
548 -154 544 -149 541 -143 ct 538 -138 535 -131 534 -123 ct 532 -115 532 -107 532 -97 ct 
532 0 l  500 0 l  p ef
pom
pum
6584 15740 t
71 3 m  53 3 39 -2 29 -12 ct 20 -22 15 -35 15 -53 ct 15 -65 17 -75 22 -83 ct 27 -91 33 -97 40 -102 ct 
48 -106 56 -109 66 -111 ct 76 -113 86 -114 95 -114 ct 137 -114 l  137 -124 l 
137 -132 137 -138 135 -144 ct 133 -149 131 -154 128 -157 ct 124 -161 120 -163 115 -165 ct 
110 -166 104 -167 97 -167 ct 91 -167 86 -167 81 -166 ct 76 -165 72 -163 69 -161 ct 
65 -159 62 -156 60 -152 ct 58 -148 56 -143 56 -137 ct 23 -140 l  24 -148 27 -154 30 -160 ct 
33 -167 38 -172 44 -176 ct 49 -181 57 -184 66 -187 ct 75 -189 85 -191 98 -191 ct 
122 -191 139 -185 151 -175 ct 163 -164 169 -148 169 -128 ct 169 -48 l  169 -38 170 -31 172 -27 ct 
175 -22 179 -20 186 -20 ct 188 -20 190 -20 191 -20 ct 193 -20 195 -21 196 -21 ct 
196 -2 l  192 -1 189 0 185 0 ct 181 1 177 1 172 1 ct 167 1 161 0 157 -1 ct 153 -3 150 -5 147 -8 ct 
144 -11 142 -15 141 -20 ct 140 -25 139 -30 138 -36 ct 137 -36 l  134 -30 130 -25 126 -20 ct 
122 -15 118 -11 113 -8 ct 107 -4 101 -2 95 0 ct 88 2 80 3 71 3 ct p
78 -20 m  88 -20 97 -22 104 -26 ct 112 -29 118 -34 123 -39 ct 128 -45 131 -51 134 -58 ct 
136 -64 137 -71 137 -77 ct 137 -92 l  103 -92 l  96 -92 89 -92 82 -91 ct 75 -90 69 -88 64 -85 ct 
59 -82 55 -78 51 -73 ct 48 -67 47 -61 47 -52 ct 47 -42 50 -34 55 -29 ct 61 -23 68 -20 78 -20 ct 
p ef
367 -94 m  367 -80 365 -67 363 -55 ct 361 -43 357 -33 352 -25 ct 346 -16 339 -9 330 -4 ct 
322 1 311 3 298 3 ct 285 3 273 0 263 -5 ct 253 -10 245 -18 240 -29 ct 239 -29 l 
239 -29 239 -28 239 -26 ct 239 -24 240 -22 240 -19 ct 240 -17 240 -14 240 -10 ct 
240 -7 240 -3 240 0 ct 240 73 l  209 73 l  209 -149 l  209 -153 209 -158 209 -162 ct 
209 -166 209 -170 208 -173 ct 208 -176 208 -179 208 -182 ct 208 -184 208 -186 208 -187 ct 
238 -187 l  238 -187 238 -185 238 -183 ct 238 -181 239 -179 239 -176 ct 239 -173 239 -170 239 -166 ct 
239 -163 239 -160 239 -157 ct 240 -157 l  243 -163 246 -168 250 -172 ct 254 -176 258 -180 263 -182 ct 
267 -185 273 -187 278 -188 ct 284 -189 291 -190 298 -190 ct 311 -190 322 -188 330 -183 ct 
339 -179 346 -172 352 -164 ct 357 -155 361 -145 363 -134 ct 365 -122 367 -109 367 -94 ct 
p
334 -94 m  334 -105 333 -115 332 -124 ct 330 -133 328 -141 325 -147 ct 321 -153 317 -158 311 -161 ct 
306 -164 298 -166 290 -166 ct 283 -166 277 -165 270 -163 ct 264 -161 259 -157 255 -152 ct 
250 -146 246 -139 244 -129 ct 241 -119 240 -107 240 -91 ct 240 -78 241 -67 243 -58 ct 
245 -49 248 -41 253 -36 ct 257 -30 262 -26 268 -24 ct 274 -21 282 -20 290 -20 ct 
298 -20 305 -22 311 -25 ct 317 -28 321 -33 325 -39 ct 328 -46 330 -53 332 -63 ct 
333 -72 334 -82 334 -94 ct p ef
394 0 m  394 -143 l  394 -147 394 -151 394 -155 ct 394 -159 394 -163 394 -167 ct 
394 -171 394 -174 394 -178 ct 394 -181 394 -184 393 -187 ct 423 -187 l  423 -184 423 -181 423 -178 ct 
423 -174 424 -171 424 -167 ct 424 -164 424 -160 424 -157 ct 424 -154 424 -151 424 -148 ct 
425 -148 l  427 -156 429 -162 432 -167 ct 434 -172 437 -177 441 -180 ct 444 -183 448 -186 452 -188 ct 
457 -189 463 -190 469 -190 ct 472 -190 474 -190 476 -189 ct 479 -189 480 -189 482 -188 ct 
482 -160 l  480 -160 477 -161 474 -161 ct 472 -161 469 -162 465 -162 ct 458 -162 452 -160 447 -157 ct 
442 -154 438 -149 435 -143 ct 432 -138 429 -131 428 -123 ct 426 -115 426 -107 426 -97 ct 
426 0 l  394 0 l  p ef
pom
pum
7333 15740 t
132 0 m  132 -118 l  132 -127 132 -135 131 -141 ct 130 -147 128 -152 125 -156 ct 
122 -160 119 -162 114 -164 ct 110 -165 105 -166 98 -166 ct 92 -166 86 -165 80 -162 ct 
75 -160 71 -156 67 -151 ct 63 -146 60 -140 58 -133 ct 56 -126 55 -117 55 -108 ct 
55 0 l  24 0 l  24 -147 l  24 -151 24 -155 24 -159 ct 24 -163 24 -167 24 -171 ct 
24 -175 24 -178 24 -181 ct 24 -184 24 -186 23 -187 ct 53 -187 l  53 -186 53 -184 53 -182 ct 
53 -179 53 -176 54 -173 ct 54 -170 54 -167 54 -163 ct 54 -160 54 -157 54 -155 ct 
55 -155 l  57 -160 60 -165 64 -169 ct 67 -174 71 -177 75 -180 ct 79 -183 84 -186 90 -188 ct 
95 -189 102 -190 109 -190 ct 123 -190 134 -187 143 -182 ct 151 -176 157 -167 160 -155 ct 
160 -155 l  163 -160 166 -165 170 -169 ct 173 -174 177 -177 182 -180 ct 186 -183 191 -186 197 -188 ct 
203 -189 209 -190 217 -190 ct 226 -190 234 -189 241 -186 ct 248 -184 254 -180 258 -174 ct 
262 -169 266 -162 268 -154 ct 270 -146 271 -136 271 -124 ct 271 0 l  240 0 l 
240 -118 l  240 -127 240 -135 238 -141 ct 237 -147 235 -152 233 -156 ct 230 -160 226 -162 222 -164 ct 
218 -165 212 -166 206 -166 ct 199 -166 194 -165 188 -162 ct 183 -160 178 -156 175 -151 ct 
171 -147 168 -141 166 -133 ct 164 -126 163 -118 163 -108 ct 163 0 l  132 0 l 
p ef
362 3 m  344 3 330 -2 320 -12 ct 311 -22 306 -35 306 -53 ct 306 -65 308 -75 313 -83 ct 
318 -91 324 -97 331 -102 ct 339 -106 347 -109 357 -111 ct 367 -113 377 -114 386 -114 ct 
428 -114 l  428 -124 l  428 -132 428 -138 426 -144 ct 424 -149 422 -154 419 -157 ct 
415 -161 411 -163 406 -165 ct 401 -166 395 -167 388 -167 ct 382 -167 377 -167 372 -166 ct 
367 -165 363 -163 360 -161 ct 356 -159 353 -156 351 -152 ct 349 -148 347 -143 347 -137 ct 
314 -140 l  315 -148 318 -154 321 -160 ct 324 -167 329 -172 335 -176 ct 340 -181 348 -184 357 -187 ct 
366 -189 376 -191 389 -191 ct 413 -191 430 -185 442 -175 ct 454 -164 460 -148 460 -128 ct 
460 -48 l  460 -38 461 -31 463 -27 ct 466 -22 470 -20 477 -20 ct 479 -20 481 -20 482 -20 ct 
484 -20 486 -21 487 -21 ct 487 -2 l  483 -1 480 0 476 0 ct 472 1 468 1 463 1 ct 
458 1 452 0 448 -1 ct 444 -3 441 -5 438 -8 ct 435 -11 433 -15 432 -20 ct 431 -25 430 -30 429 -36 ct 
428 -36 l  425 -30 421 -25 417 -20 ct 413 -15 409 -11 404 -8 ct 398 -4 392 -2 386 0 ct 
379 2 371 3 362 3 ct p
369 -20 m  379 -20 388 -22 395 -26 ct 403 -29 409 -34 414 -39 ct 419 -45 422 -51 425 -58 ct 
427 -64 428 -71 428 -77 ct 428 -92 l  394 -92 l  387 -92 380 -92 373 -91 ct 
366 -90 360 -88 355 -85 ct 350 -82 346 -78 342 -73 ct 339 -67 338 -61 338 -52 ct 
338 -42 341 -34 346 -29 ct 352 -23 359 -20 369 -20 ct p ef
580 0 m  576 11 571 21 567 30 ct 562 39 557 47 551 53 ct 546 60 540 65 533 68 ct 
526 71 518 73 509 73 ct 505 73 501 73 498 73 ct 495 73 491 72 488 71 ct 488 48 l 
490 49 492 49 495 49 ct 498 49 500 49 502 49 ct 511 49 520 46 527 39 ct 535 32 542 21 548 6 ct 
551 -1 l  477 -187 l  510 -187 l  549 -83 l  550 -80 552 -76 554 -71 ct 555 -66 557 -61 559 -55 ct 
561 -50 562 -46 564 -41 ct 565 -37 566 -35 566 -34 ct 566 -35 567 -37 569 -41 ct 
570 -45 571 -49 573 -54 ct 575 -58 576 -63 578 -68 ct 580 -72 581 -76 583 -80 ct 
619 -187 l  652 -187 l  580 0 l  p ef
pom
pum
8281 15740 t
24 -226 m  24 -256 l  55 -256 l  55 -226 l  24 -226 l  p
55 23 m  55 30 54 37 53 43 ct 52 49 49 54 46 59 ct 43 63 39 67 34 69 ct 28 72 22 73 13 73 ct 
9 73 6 73 2 73 ct -2 73 -5 73 -9 72 ct -9 48 l  -7 48 -5 48 -3 49 ct -1 49 1 49 2 49 ct 
6 49 10 48 13 47 ct 16 46 18 44 19 42 ct 21 39 22 36 23 32 ct 23 28 24 24 24 19 ct 
24 -187 l  55 -187 l  55 23 l  p ef
133 -187 m  133 -69 l  133 -60 134 -52 135 -46 ct 136 -40 139 -35 142 -31 ct 
145 -27 148 -25 153 -23 ct 158 -22 164 -21 172 -21 ct 179 -21 186 -22 191 -25 ct 
197 -27 202 -31 207 -36 ct 211 -41 214 -47 216 -54 ct 219 -61 220 -70 220 -79 ct 
220 -187 l  251 -187 l  251 -40 l  251 -36 251 -32 251 -28 ct 251 -24 251 -20 251 -16 ct 
251 -12 251 -9 252 -6 ct 252 -3 252 -1 252 0 ct 223 0 l  222 -1 222 -3 222 -5 ct 
222 -8 222 -11 222 -14 ct 222 -17 221 -20 221 -24 ct 221 -27 221 -30 221 -32 ct 
221 -32 l  218 -27 214 -22 211 -18 ct 207 -13 203 -10 198 -7 ct 194 -4 188 -1 182 1 ct 
176 2 169 3 161 3 ct 151 3 142 2 134 -1 ct 127 -3 121 -7 116 -13 ct 111 -18 108 -25 105 -33 ct 
103 -41 102 -51 102 -63 ct 102 -187 l  133 -187 l  p ef
407 0 m  407 -118 l  407 -127 407 -135 405 -141 ct 404 -147 402 -152 399 -156 ct 
396 -160 392 -162 387 -164 ct 382 -165 376 -166 369 -166 ct 361 -166 355 -165 349 -162 ct 
343 -160 338 -156 334 -151 ct 329 -146 326 -140 324 -133 ct 322 -126 321 -117 321 -108 ct 
321 0 l  289 0 l  289 -147 l  289 -151 289 -155 289 -159 ct 289 -163 289 -167 289 -171 ct 
289 -175 289 -178 289 -181 ct 289 -184 289 -186 288 -187 ct 318 -187 l  318 -186 318 -184 318 -182 ct 
318 -179 318 -176 319 -173 ct 319 -170 319 -167 319 -163 ct 319 -160 319 -157 319 -155 ct 
320 -155 l  323 -160 326 -165 329 -169 ct 333 -174 337 -177 342 -180 ct 347 -183 352 -186 358 -188 ct 
364 -189 371 -190 379 -190 ct 390 -190 399 -189 406 -186 ct 413 -184 420 -180 424 -174 ct 
429 -169 433 -162 435 -154 ct 437 -146 438 -136 438 -124 ct 438 0 l  407 0 l 
p ef
pom
pum
9177 15740 t
24 -226 m  24 -256 l  55 -256 l  55 -226 l  24 -226 l  p
55 23 m  55 30 54 37 53 43 ct 52 49 49 54 46 59 ct 43 63 39 67 34 69 ct 28 72 22 73 13 73 ct 
9 73 6 73 2 73 ct -2 73 -5 73 -9 72 ct -9 48 l  -7 48 -5 48 -3 49 ct -1 49 1 49 2 49 ct 
6 49 10 48 13 47 ct 16 46 18 44 19 42 ct 21 39 22 36 23 32 ct 23 28 24 24 24 19 ct 
24 -187 l  55 -187 l  55 23 l  p ef
133 -187 m  133 -69 l  133 -60 134 -52 135 -46 ct 136 -40 139 -35 142 -31 ct 
145 -27 148 -25 153 -23 ct 158 -22 164 -21 172 -21 ct 179 -21 186 -22 191 -25 ct 
197 -27 202 -31 207 -36 ct 211 -41 214 -47 216 -54 ct 219 -61 220 -70 220 -79 ct 
220 -187 l  251 -187 l  251 -40 l  251 -36 251 -32 251 -28 ct 251 -24 251 -20 251 -16 ct 
251 -12 251 -9 252 -6 ct 252 -3 252 -1 252 0 ct 223 0 l  222 -1 222 -3 222 -5 ct 
222 -8 222 -11 222 -14 ct 222 -17 221 -20 221 -24 ct 221 -27 221 -30 221 -32 ct 
221 -32 l  218 -27 214 -22 211 -18 ct 207 -13 203 -10 198 -7 ct 194 -4 188 -1 182 1 ct 
176 2 169 3 161 3 ct 151 3 142 2 134 -1 ct 127 -3 121 -7 116 -13 ct 111 -18 108 -25 105 -33 ct 
103 -41 102 -51 102 -63 ct 102 -187 l  133 -187 l  p ef
289 0 m  289 -256 l  320 -256 l  320 0 l  289 0 l  p ef
pom
pum
9913 15740 t
71 3 m  53 3 39 -2 29 -12 ct 20 -22 15 -35 15 -53 ct 15 -65 17 -75 22 -83 ct 27 -91 33 -97 40 -102 ct 
48 -106 56 -109 66 -111 ct 76 -113 86 -114 95 -114 ct 137 -114 l  137 -124 l 
137 -132 137 -138 135 -144 ct 133 -149 131 -154 128 -157 ct 124 -161 120 -163 115 -165 ct 
110 -166 104 -167 97 -167 ct 91 -167 86 -167 81 -166 ct 76 -165 72 -163 69 -161 ct 
65 -159 62 -156 60 -152 ct 58 -148 56 -143 56 -137 ct 23 -140 l  24 -148 27 -154 30 -160 ct 
33 -167 38 -172 44 -176 ct 49 -181 57 -184 66 -187 ct 75 -189 85 -191 98 -191 ct 
122 -191 139 -185 151 -175 ct 163 -164 169 -148 169 -128 ct 169 -48 l  169 -38 170 -31 172 -27 ct 
175 -22 179 -20 186 -20 ct 188 -20 190 -20 191 -20 ct 193 -20 195 -21 196 -21 ct 
196 -2 l  192 -1 189 0 185 0 ct 181 1 177 1 172 1 ct 167 1 161 0 157 -1 ct 153 -3 150 -5 147 -8 ct 
144 -11 142 -15 141 -20 ct 140 -25 139 -30 138 -36 ct 137 -36 l  134 -30 130 -25 126 -20 ct 
122 -15 118 -11 113 -8 ct 107 -4 101 -2 95 0 ct 88 2 80 3 71 3 ct p
78 -20 m  88 -20 97 -22 104 -26 ct 112 -29 118 -34 123 -39 ct 128 -45 131 -51 134 -58 ct 
136 -64 137 -71 137 -77 ct 137 -92 l  103 -92 l  96 -92 89 -92 82 -91 ct 75 -90 69 -88 64 -85 ct 
59 -82 55 -78 51 -73 ct 48 -67 47 -61 47 -52 ct 47 -42 50 -34 55 -29 ct 61 -23 68 -20 78 -20 ct 
p ef
239 -187 m  239 -69 l  239 -60 240 -52 241 -46 ct 242 -40 245 -35 248 -31 ct 
251 -27 254 -25 259 -23 ct 264 -22 270 -21 278 -21 ct 285 -21 292 -22 297 -25 ct 
303 -27 308 -31 313 -36 ct 317 -41 320 -47 322 -54 ct 325 -61 326 -70 326 -79 ct 
326 -187 l  357 -187 l  357 -40 l  357 -36 357 -32 357 -28 ct 357 -24 357 -20 357 -16 ct 
357 -12 357 -9 358 -6 ct 358 -3 358 -1 358 0 ct 329 0 l  328 -1 328 -3 328 -5 ct 
328 -8 328 -11 328 -14 ct 328 -17 327 -20 327 -24 ct 327 -27 327 -30 327 -32 ct 
327 -32 l  324 -27 320 -22 317 -18 ct 313 -13 309 -10 304 -7 ct 300 -4 294 -1 288 1 ct 
282 2 275 3 267 3 ct 257 3 248 2 240 -1 ct 233 -3 227 -7 222 -13 ct 217 -18 214 -25 211 -33 ct 
209 -41 208 -51 208 -63 ct 208 -187 l  239 -187 l  p ef
464 73 m  454 73 444 72 436 70 ct 428 68 421 64 415 60 ct 409 56 404 51 401 46 ct 
397 40 394 34 393 27 ct 424 22 l  426 31 430 38 437 42 ct 445 47 454 49 465 49 ct 
472 49 479 48 484 46 ct 490 44 495 41 499 37 ct 503 33 506 27 508 20 ct 511 13 512 5 512 -5 ct 
512 -35 l  511 -35 l  509 -30 506 -26 503 -22 ct 499 -17 495 -13 490 -10 ct 
486 -7 480 -4 473 -2 ct 467 0 460 1 451 1 ct 440 1 429 -1 421 -5 ct 412 -9 406 -15 400 -23 ct 
395 -31 391 -41 389 -52 ct 386 -64 385 -78 385 -93 ct 385 -108 386 -122 389 -134 ct 
391 -146 395 -156 401 -164 ct 406 -173 413 -179 422 -183 ct 431 -188 442 -190 455 -190 ct 
468 -190 479 -187 489 -181 ct 499 -175 506 -166 512 -155 ct 512 -155 l  512 -158 512 -161 512 -165 ct 
512 -168 513 -172 513 -175 ct 513 -178 513 -181 513 -183 ct 514 -185 514 -187 514 -187 ct 
544 -187 l  543 -186 543 -184 543 -182 ct 543 -179 543 -176 543 -173 ct 543 -169 543 -166 543 -161 ct 
543 -157 543 -153 543 -148 ct 543 -6 l  543 20 536 40 523 53 ct 511 66 491 73 464 73 ct 
p
512 -94 m  512 -107 510 -118 507 -127 ct 505 -136 501 -144 496 -150 ct 492 -156 486 -160 481 -163 ct 
475 -166 469 -167 462 -167 ct 454 -167 448 -166 442 -163 ct 436 -160 432 -156 428 -150 ct 
424 -144 421 -136 420 -127 ct 418 -118 417 -107 417 -94 ct 417 -80 418 -69 420 -60 ct 
421 -51 424 -43 428 -38 ct 431 -32 436 -28 442 -26 ct 447 -23 454 -22 462 -22 ct 
468 -22 474 -23 480 -26 ct 486 -29 491 -33 496 -38 ct 501 -44 505 -52 507 -61 ct 
510 -70 512 -81 512 -94 ct p ef
pom
pum
10755 15740 t
164 -52 m  164 -43 162 -36 159 -29 ct 155 -22 150 -16 144 -11 ct 137 -7 130 -3 120 -1 ct 
111 2 100 3 88 3 ct 77 3 68 2 59 1 ct 50 -1 43 -4 36 -8 ct 29 -11 24 -16 20 -22 ct 
15 -28 12 -36 10 -44 ct 37 -50 l  40 -40 45 -32 54 -28 ct 62 -23 73 -21 88 -21 ct 
95 -21 101 -21 106 -22 ct 112 -23 117 -25 121 -27 ct 125 -29 128 -32 130 -36 ct 
132 -39 134 -44 134 -50 ct 134 -55 132 -60 130 -63 ct 127 -67 123 -70 119 -73 ct 
114 -75 108 -77 101 -79 ct 95 -81 87 -83 79 -85 ct 72 -87 64 -89 57 -91 ct 50 -94 43 -97 37 -101 ct 
31 -105 26 -110 23 -116 ct 19 -122 17 -129 17 -138 ct 17 -155 23 -168 35 -177 ct 
48 -186 65 -190 88 -190 ct 109 -190 125 -186 137 -179 ct 150 -172 157 -160 160 -144 ct 
133 -141 l  132 -146 130 -150 127 -153 ct 124 -156 121 -159 117 -161 ct 113 -163 109 -164 104 -165 ct 
99 -166 94 -167 88 -167 ct 74 -167 64 -164 57 -160 ct 51 -156 47 -149 47 -141 ct 
47 -136 49 -132 51 -128 ct 54 -125 57 -122 61 -120 ct 66 -118 71 -116 77 -114 ct 
84 -113 90 -111 98 -109 ct 103 -108 108 -106 113 -105 ct 118 -103 123 -102 128 -100 ct 
133 -98 138 -95 142 -93 ct 146 -90 150 -87 153 -83 ct 156 -79 159 -75 161 -70 ct 
163 -65 164 -59 164 -52 ct p ef
233 -87 m  233 -77 234 -68 236 -60 ct 238 -52 241 -45 245 -39 ct 249 -33 254 -28 261 -25 ct 
268 -22 275 -20 285 -20 ct 298 -20 309 -23 317 -28 ct 325 -34 331 -41 333 -49 ct 
361 -41 l  359 -36 356 -31 352 -26 ct 349 -20 344 -16 338 -11 ct 333 -7 325 -4 316 -1 ct 
308 2 297 3 285 3 ct 257 3 236 -5 222 -22 ct 207 -38 200 -62 200 -95 ct 200 -112 202 -127 207 -139 ct 
211 -151 217 -161 224 -169 ct 232 -176 241 -182 251 -185 ct 261 -188 272 -190 283 -190 ct 
299 -190 312 -187 323 -182 ct 333 -177 342 -170 348 -162 ct 354 -153 359 -142 362 -130 ct 
364 -118 366 -105 366 -91 ct 366 -87 l  233 -87 l  p
334 -111 m  332 -130 327 -145 319 -154 ct 310 -163 298 -167 283 -167 ct 278 -167 272 -166 267 -165 ct 
261 -163 256 -160 251 -156 ct 246 -152 242 -146 239 -139 ct 235 -131 233 -122 233 -111 ct 
334 -111 l  p ef
552 -94 m  552 -80 550 -67 548 -55 ct 546 -43 542 -33 537 -25 ct 531 -16 524 -9 515 -4 ct 
507 1 496 3 483 3 ct 470 3 458 0 448 -5 ct 438 -10 430 -18 425 -29 ct 424 -29 l 
424 -29 424 -28 424 -26 ct 424 -24 425 -22 425 -19 ct 425 -17 425 -14 425 -10 ct 
425 -7 425 -3 425 0 ct 425 73 l  394 73 l  394 -149 l  394 -153 394 -158 394 -162 ct 
394 -166 394 -170 393 -173 ct 393 -176 393 -179 393 -182 ct 393 -184 393 -186 393 -187 ct 
423 -187 l  423 -187 423 -185 423 -183 ct 423 -181 424 -179 424 -176 ct 424 -173 424 -170 424 -166 ct 
424 -163 424 -160 424 -157 ct 425 -157 l  428 -163 431 -168 435 -172 ct 439 -176 443 -180 448 -182 ct 
452 -185 458 -187 463 -188 ct 469 -189 476 -190 483 -190 ct 496 -190 507 -188 515 -183 ct 
524 -179 531 -172 537 -164 ct 542 -155 546 -145 548 -134 ct 550 -122 552 -109 552 -94 ct 
p
519 -94 m  519 -105 518 -115 517 -124 ct 515 -133 513 -141 510 -147 ct 506 -153 502 -158 496 -161 ct 
491 -164 483 -166 475 -166 ct 468 -166 462 -165 455 -163 ct 449 -161 444 -157 440 -152 ct 
435 -146 431 -139 429 -129 ct 426 -119 425 -107 425 -91 ct 425 -78 426 -67 428 -58 ct 
430 -49 433 -41 438 -36 ct 442 -30 447 -26 453 -24 ct 459 -21 467 -20 475 -20 ct 
483 -20 490 -22 496 -25 ct 502 -28 506 -33 510 -39 ct 513 -46 515 -53 517 -63 ct 
518 -72 519 -82 519 -94 ct p ef
pom
pum
11637 15740 t
182 -94 m  182 -61 174 -37 160 -21 ct 146 -5 125 3 97 3 ct 84 3 73 1 63 -3 ct 52 -7 44 -13 37 -21 ct 
30 -29 24 -39 20 -51 ct 17 -63 15 -77 15 -94 ct 15 -158 43 -190 98 -190 ct 113 -190 125 -188 136 -184 ct 
146 -180 155 -174 162 -166 ct 168 -158 173 -148 177 -136 ct 180 -124 182 -110 182 -94 ct 
p
149 -94 m  149 -108 148 -120 146 -129 ct 143 -139 140 -146 136 -152 ct 131 -158 126 -161 120 -164 ct 
114 -166 107 -167 99 -167 ct 91 -167 84 -166 77 -164 ct 71 -161 66 -157 61 -152 ct 
57 -146 53 -138 51 -129 ct 49 -120 47 -108 47 -94 ct 47 -79 49 -67 51 -58 ct 54 -48 57 -41 62 -35 ct 
66 -30 71 -26 77 -23 ct 83 -21 90 -20 97 -20 ct 105 -20 112 -21 119 -23 ct 125 -26 130 -29 135 -35 ct 
139 -41 143 -48 145 -58 ct 148 -67 149 -79 149 -94 ct p ef
232 -95 m  232 -84 233 -74 235 -65 ct 236 -56 239 -48 243 -42 ct 246 -35 251 -30 257 -27 ct 
263 -23 271 -21 279 -21 ct 290 -21 300 -24 307 -30 ct 315 -36 319 -45 321 -57 ct 
352 -57 l  351 -49 349 -42 345 -34 ct 342 -27 337 -21 331 -15 ct 326 -10 318 -5 310 -2 ct 
301 1 291 3 280 3 ct 266 3 253 1 243 -4 ct 233 -9 225 -16 218 -25 ct 212 -34 207 -44 204 -56 ct 
201 -67 200 -80 200 -94 ct 200 -106 201 -117 203 -127 ct 205 -137 208 -145 212 -152 ct 
216 -159 220 -165 225 -170 ct 230 -175 236 -179 241 -182 ct 247 -185 254 -187 260 -188 ct 
267 -190 273 -190 280 -190 ct 290 -190 300 -189 308 -186 ct 316 -183 323 -179 329 -174 ct 
335 -169 340 -163 343 -157 ct 347 -150 350 -142 351 -135 ct 319 -132 l  318 -143 314 -151 307 -157 ct 
300 -163 291 -166 279 -166 ct 270 -166 263 -165 257 -162 ct 251 -159 246 -154 243 -148 ct 
239 -142 236 -135 235 -126 ct 233 -117 232 -107 232 -95 ct p ef
465 -1 m  461 0 456 1 451 2 ct 446 3 441 3 434 3 ct 409 3 397 -11 397 -39 ct 397 -164 l 
375 -164 l  375 -187 l  398 -187 l  407 -228 l  428 -228 l  428 -187 l 
462 -187 l  462 -164 l  428 -164 l  428 -46 l  428 -37 429 -31 432 -27 ct 
435 -23 440 -22 448 -22 ct 451 -22 453 -22 456 -22 ct 459 -23 462 -23 465 -24 ct 
465 -1 l  p ef
pom
pum
12439 15740 t
142 0 m  142 -118 l  142 -127 142 -135 140 -141 ct 139 -147 137 -152 134 -156 ct 
131 -160 127 -162 122 -164 ct 117 -165 111 -166 104 -166 ct 96 -166 90 -165 84 -162 ct 
78 -160 73 -156 69 -151 ct 64 -146 61 -140 59 -133 ct 57 -126 56 -117 56 -108 ct 
56 0 l  24 0 l  24 -147 l  24 -151 24 -155 24 -159 ct 24 -163 24 -167 24 -171 ct 
24 -175 24 -178 24 -181 ct 24 -184 24 -186 23 -187 ct 53 -187 l  53 -186 53 -184 53 -182 ct 
53 -179 53 -176 54 -173 ct 54 -170 54 -167 54 -163 ct 54 -160 54 -157 54 -155 ct 
55 -155 l  58 -160 61 -165 64 -169 ct 68 -174 72 -177 77 -180 ct 82 -183 87 -186 93 -188 ct 
99 -189 106 -190 114 -190 ct 125 -190 134 -189 141 -186 ct 148 -184 155 -180 159 -174 ct 
164 -169 168 -162 170 -154 ct 172 -146 173 -136 173 -124 ct 173 0 l  142 0 l 
p ef
367 -94 m  367 -61 359 -37 345 -21 ct 331 -5 310 3 282 3 ct 269 3 258 1 248 -3 ct 
237 -7 229 -13 222 -21 ct 215 -29 209 -39 205 -51 ct 202 -63 200 -77 200 -94 ct 
200 -158 228 -190 283 -190 ct 298 -190 310 -188 321 -184 ct 331 -180 340 -174 347 -166 ct 
353 -158 358 -148 362 -136 ct 365 -124 367 -110 367 -94 ct p
334 -94 m  334 -108 333 -120 331 -129 ct 328 -139 325 -146 321 -152 ct 316 -158 311 -161 305 -164 ct 
299 -166 292 -167 284 -167 ct 276 -167 269 -166 262 -164 ct 256 -161 251 -157 246 -152 ct 
242 -146 238 -138 236 -129 ct 234 -120 232 -108 232 -94 ct 232 -79 234 -67 236 -58 ct 
239 -48 242 -41 247 -35 ct 251 -30 256 -26 262 -23 ct 268 -21 275 -20 282 -20 ct 
290 -20 297 -21 304 -23 ct 310 -26 315 -29 320 -35 ct 324 -41 328 -48 330 -58 ct 
333 -67 334 -79 334 -94 ct p ef
476 0 m  439 0 l  371 -187 l  404 -187 l  445 -65 l  446 -63 447 -60 448 -56 ct 
449 -52 450 -49 452 -45 ct 453 -41 454 -37 455 -33 ct 456 -30 457 -27 457 -24 ct 
458 -27 459 -30 460 -33 ct 461 -37 462 -41 463 -44 ct 464 -48 466 -52 467 -56 ct 
468 -59 469 -62 470 -65 ct 512 -187 l  545 -187 l  476 0 l  p ef
pom
pum
13281 15740 t
142 -30 m  136 -18 128 -10 119 -5 ct 109 0 97 3 83 3 ct 60 3 43 -5 31 -21 ct 20 -37 15 -61 15 -93 ct 
15 -158 38 -190 83 -190 ct 98 -190 109 -187 119 -182 ct 128 -177 136 -169 142 -158 ct 
142 -158 l  142 -159 142 -161 142 -163 ct 142 -166 142 -168 142 -171 ct 142 -174 142 -176 142 -179 ct 
142 -181 142 -183 142 -184 ct 142 -256 l  173 -256 l  173 -39 l  173 -34 173 -30 173 -26 ct 
173 -22 173 -18 173 -14 ct 173 -11 173 -8 173 -5 ct 173 -3 173 -1 174 0 ct 144 0 l 
144 -1 143 -3 143 -5 ct 143 -7 143 -10 143 -12 ct 143 -15 142 -18 142 -21 ct 142 -24 142 -27 142 -30 ct 
142 -30 l  p
47 -94 m  47 -81 48 -70 50 -61 ct 51 -52 54 -44 58 -38 ct 61 -32 66 -28 71 -25 ct 
77 -22 83 -21 91 -21 ct 100 -21 107 -22 113 -25 ct 119 -28 124 -32 129 -38 ct 133 -44 136 -51 138 -61 ct 
140 -70 142 -82 142 -96 ct 142 -109 140 -120 138 -129 ct 136 -138 133 -146 129 -151 ct 
124 -157 119 -161 113 -163 ct 107 -166 100 -167 92 -167 ct 84 -167 78 -166 72 -163 ct 
67 -160 62 -156 58 -150 ct 55 -145 52 -137 50 -128 ct 48 -118 47 -107 47 -94 ct 
p ef
233 -87 m  233 -77 234 -68 236 -60 ct 238 -52 241 -45 245 -39 ct 249 -33 254 -28 261 -25 ct 
268 -22 275 -20 285 -20 ct 298 -20 309 -23 317 -28 ct 325 -34 331 -41 333 -49 ct 
361 -41 l  359 -36 356 -31 352 -26 ct 349 -20 344 -16 338 -11 ct 333 -7 325 -4 316 -1 ct 
308 2 297 3 285 3 ct 257 3 236 -5 222 -22 ct 207 -38 200 -62 200 -95 ct 200 -112 202 -127 207 -139 ct 
211 -151 217 -161 224 -169 ct 232 -176 241 -182 251 -185 ct 261 -188 272 -190 283 -190 ct 
299 -190 312 -187 323 -182 ct 333 -177 342 -170 348 -162 ct 354 -153 359 -142 362 -130 ct 
364 -118 366 -105 366 -91 ct 366 -87 l  233 -87 l  p
334 -111 m  332 -130 327 -145 319 -154 ct 310 -163 298 -167 283 -167 ct 278 -167 272 -166 267 -165 ct 
261 -163 256 -160 251 -156 ct 246 -152 242 -146 239 -139 ct 235 -131 233 -122 233 -111 ct 
334 -111 l  p ef
417 -95 m  417 -84 418 -74 420 -65 ct 421 -56 424 -48 428 -42 ct 431 -35 436 -30 442 -27 ct 
448 -23 456 -21 464 -21 ct 475 -21 485 -24 492 -30 ct 500 -36 504 -45 506 -57 ct 
537 -57 l  536 -49 534 -42 530 -34 ct 527 -27 522 -21 516 -15 ct 511 -10 503 -5 495 -2 ct 
486 1 476 3 465 3 ct 451 3 438 1 428 -4 ct 418 -9 410 -16 403 -25 ct 397 -34 392 -44 389 -56 ct 
386 -67 385 -80 385 -94 ct 385 -106 386 -117 388 -127 ct 390 -137 393 -145 397 -152 ct 
401 -159 405 -165 410 -170 ct 415 -175 421 -179 426 -182 ct 432 -185 439 -187 445 -188 ct 
452 -190 458 -190 465 -190 ct 475 -190 485 -189 493 -186 ct 501 -183 508 -179 514 -174 ct 
520 -169 525 -163 528 -157 ct 532 -150 535 -142 536 -135 ct 504 -132 l  503 -143 499 -151 492 -157 ct 
485 -163 476 -166 464 -166 ct 455 -166 448 -165 442 -162 ct 436 -159 431 -154 428 -148 ct 
424 -142 421 -135 420 -126 ct 418 -117 417 -107 417 -95 ct p ef
pom
pum
3440 15293 t
183 -122 m  183 -99 180 -79 176 -63 ct 171 -47 165 -34 158 -25 ct 150 -15 141 -8 131 -3 ct 
120 1 109 3 98 3 ct 86 3 75 1 65 -3 ct 54 -8 46 -15 38 -24 ct 30 -34 25 -47 20 -63 ct 
16 -79 14 -99 14 -122 ct 14 -146 16 -167 20 -183 ct 25 -199 31 -212 38 -221 ct 
46 -231 55 -237 65 -241 ct 75 -245 87 -247 99 -247 ct 110 -247 121 -245 131 -241 ct 
142 -237 150 -231 158 -221 ct 166 -212 172 -199 176 -183 ct 180 -167 183 -146 183 -122 ct 
p
151 -122 m  151 -141 150 -157 148 -170 ct 145 -183 142 -193 137 -201 ct 133 -209 127 -214 121 -217 ct 
114 -220 107 -222 99 -222 ct 90 -222 82 -220 76 -217 ct 69 -214 63 -208 59 -201 ct 
54 -193 51 -183 49 -170 ct 46 -157 45 -141 45 -122 ct 45 -103 46 -88 49 -75 ct 
51 -62 54 -52 59 -44 ct 64 -36 69 -31 76 -27 ct 82 -24 90 -22 98 -22 ct 106 -22 114 -24 120 -27 ct 
127 -31 132 -36 137 -44 ct 141 -52 145 -62 147 -75 ct 150 -88 151 -103 151 -122 ct 
p ef
pom
pum
2884 14176 t
182 -80 m  182 -67 180 -56 176 -46 ct 172 -36 167 -27 160 -20 ct 152 -13 143 -7 133 -3 ct 
122 1 109 3 95 3 ct 83 3 71 1 62 -1 ct 52 -4 44 -9 38 -14 ct 31 -19 26 -25 22 -32 ct 
18 -39 16 -47 14 -55 ct 46 -58 l  47 -54 49 -49 51 -45 ct 53 -41 56 -37 60 -33 ct 
64 -30 69 -27 75 -25 ct 81 -23 88 -22 96 -22 ct 104 -22 111 -24 118 -26 ct 124 -29 130 -32 135 -37 ct 
139 -42 143 -48 145 -55 ct 148 -62 149 -70 149 -79 ct 149 -86 148 -93 146 -99 ct 
143 -106 140 -111 135 -116 ct 131 -120 125 -124 119 -126 ct 112 -129 105 -130 97 -130 ct 
92 -130 87 -130 82 -129 ct 78 -128 74 -126 70 -125 ct 67 -123 63 -121 60 -119 ct 
57 -117 54 -115 52 -113 ct 21 -113 l  29 -243 l  167 -243 l  167 -217 l  58 -217 l 
53 -140 l  58 -144 65 -148 74 -151 ct 82 -154 92 -155 103 -155 ct 115 -155 126 -154 136 -150 ct 
145 -146 154 -141 160 -134 ct 167 -128 172 -120 176 -110 ct 180 -101 182 -91 182 -80 ct 
p ef
368 -122 m  368 -99 365 -79 361 -63 ct 356 -47 350 -34 343 -25 ct 335 -15 326 -8 316 -3 ct 
305 1 294 3 283 3 ct 271 3 260 1 250 -3 ct 239 -8 231 -15 223 -24 ct 215 -34 210 -47 205 -63 ct 
201 -79 199 -99 199 -122 ct 199 -146 201 -167 205 -183 ct 210 -199 216 -212 223 -221 ct 
231 -231 240 -237 250 -241 ct 260 -245 272 -247 284 -247 ct 295 -247 306 -245 316 -241 ct 
327 -237 335 -231 343 -221 ct 351 -212 357 -199 361 -183 ct 365 -167 368 -146 368 -122 ct 
p
336 -122 m  336 -141 335 -157 333 -170 ct 330 -183 327 -193 322 -201 ct 318 -209 312 -214 306 -217 ct 
299 -220 292 -222 284 -222 ct 275 -222 267 -220 261 -217 ct 254 -214 248 -208 244 -201 ct 
239 -193 236 -183 234 -170 ct 231 -157 230 -141 230 -122 ct 230 -103 231 -88 234 -75 ct 
236 -62 239 -52 244 -44 ct 249 -36 254 -31 261 -27 ct 267 -24 275 -22 283 -22 ct 
291 -22 299 -24 305 -27 ct 312 -31 317 -36 322 -44 ct 326 -52 330 -62 332 -75 ct 
335 -88 336 -103 336 -122 ct p ef
553 -122 m  553 -99 550 -79 546 -63 ct 541 -47 535 -34 528 -25 ct 520 -15 511 -8 501 -3 ct 
490 1 479 3 468 3 ct 456 3 445 1 435 -3 ct 424 -8 416 -15 408 -24 ct 400 -34 395 -47 390 -63 ct 
386 -79 384 -99 384 -122 ct 384 -146 386 -167 390 -183 ct 395 -199 401 -212 408 -221 ct 
416 -231 425 -237 435 -241 ct 445 -245 457 -247 469 -247 ct 480 -247 491 -245 501 -241 ct 
512 -237 520 -231 528 -221 ct 536 -212 542 -199 546 -183 ct 550 -167 553 -146 553 -122 ct 
p
521 -122 m  521 -141 520 -157 518 -170 ct 515 -183 512 -193 507 -201 ct 503 -209 497 -214 491 -217 ct 
484 -220 477 -222 469 -222 ct 460 -222 452 -220 446 -217 ct 439 -214 433 -208 429 -201 ct 
424 -193 421 -183 419 -170 ct 416 -157 415 -141 415 -122 ct 415 -103 416 -88 419 -75 ct 
421 -62 424 -52 429 -44 ct 434 -36 439 -31 446 -27 ct 452 -24 460 -22 468 -22 ct 
476 -22 484 -24 490 -27 ct 497 -31 502 -36 507 -44 ct 511 -52 515 -62 517 -75 ct 
520 -88 521 -103 521 -122 ct p ef
739 -122 m  739 -99 736 -79 732 -63 ct 727 -47 721 -34 714 -25 ct 706 -15 697 -8 687 -3 ct 
676 1 665 3 654 3 ct 642 3 631 1 621 -3 ct 610 -8 602 -15 594 -24 ct 586 -34 581 -47 576 -63 ct 
572 -79 570 -99 570 -122 ct 570 -146 572 -167 576 -183 ct 581 -199 587 -212 594 -221 ct 
602 -231 611 -237 621 -241 ct 631 -245 643 -247 655 -247 ct 666 -247 677 -245 687 -241 ct 
698 -237 706 -231 714 -221 ct 722 -212 728 -199 732 -183 ct 736 -167 739 -146 739 -122 ct 
p
707 -122 m  707 -141 706 -157 704 -170 ct 701 -183 698 -193 693 -201 ct 689 -209 683 -214 677 -217 ct 
670 -220 663 -222 655 -222 ct 646 -222 638 -220 632 -217 ct 625 -214 619 -208 615 -201 ct 
610 -193 607 -183 605 -170 ct 602 -157 601 -141 601 -122 ct 601 -103 602 -88 605 -75 ct 
607 -62 610 -52 615 -44 ct 620 -36 625 -31 632 -27 ct 638 -24 646 -22 654 -22 ct 
662 -22 670 -24 676 -27 ct 683 -31 688 -36 693 -44 ct 697 -52 701 -62 703 -75 ct 
706 -88 707 -103 707 -122 ct p ef
pom
pum
2699 13060 t
27 0 m  27 -26 l  89 -26 l  89 -213 l  34 -174 l  34 -204 l  91 -243 l 
120 -243 l  120 -26 l  179 -26 l  179 0 l  27 0 l  p ef
368 -122 m  368 -99 365 -79 361 -63 ct 356 -47 350 -34 343 -25 ct 335 -15 326 -8 316 -3 ct 
305 1 294 3 283 3 ct 271 3 260 1 250 -3 ct 239 -8 231 -15 223 -24 ct 215 -34 210 -47 205 -63 ct 
201 -79 199 -99 199 -122 ct 199 -146 201 -167 205 -183 ct 210 -199 216 -212 223 -221 ct 
231 -231 240 -237 250 -241 ct 260 -245 272 -247 284 -247 ct 295 -247 306 -245 316 -241 ct 
327 -237 335 -231 343 -221 ct 351 -212 357 -199 361 -183 ct 365 -167 368 -146 368 -122 ct 
p
336 -122 m  336 -141 335 -157 333 -170 ct 330 -183 327 -193 322 -201 ct 318 -209 312 -214 306 -217 ct 
299 -220 292 -222 284 -222 ct 275 -222 267 -220 261 -217 ct 254 -214 248 -208 244 -201 ct 
239 -193 236 -183 234 -170 ct 231 -157 230 -141 230 -122 ct 230 -103 231 -88 234 -75 ct 
236 -62 239 -52 244 -44 ct 249 -36 254 -31 261 -27 ct 267 -24 275 -22 283 -22 ct 
291 -22 299 -24 305 -27 ct 312 -31 317 -36 322 -44 ct 326 -52 330 -62 332 -75 ct 
335 -88 336 -103 336 -122 ct p ef
553 -122 m  553 -99 550 -79 546 -63 ct 541 -47 535 -34 528 -25 ct 520 -15 511 -8 501 -3 ct 
490 1 479 3 468 3 ct 456 3 445 1 435 -3 ct 424 -8 416 -15 408 -24 ct 400 -34 395 -47 390 -63 ct 
386 -79 384 -99 384 -122 ct 384 -146 386 -167 390 -183 ct 395 -199 401 -212 408 -221 ct 
416 -231 425 -237 435 -241 ct 445 -245 457 -247 469 -247 ct 480 -247 491 -245 501 -241 ct 
512 -237 520 -231 528 -221 ct 536 -212 542 -199 546 -183 ct 550 -167 553 -146 553 -122 ct 
p
521 -122 m  521 -141 520 -157 518 -170 ct 515 -183 512 -193 507 -201 ct 503 -209 497 -214 491 -217 ct 
484 -220 477 -222 469 -222 ct 460 -222 452 -220 446 -217 ct 439 -214 433 -208 429 -201 ct 
424 -193 421 -183 419 -170 ct 416 -157 415 -141 415 -122 ct 415 -103 416 -88 419 -75 ct 
421 -62 424 -52 429 -44 ct 434 -36 439 -31 446 -27 ct 452 -24 460 -22 468 -22 ct 
476 -22 484 -24 490 -27 ct 497 -31 502 -36 507 -44 ct 511 -52 515 -62 517 -75 ct 
520 -88 521 -103 521 -122 ct p ef
739 -122 m  739 -99 736 -79 732 -63 ct 727 -47 721 -34 714 -25 ct 706 -15 697 -8 687 -3 ct 
676 1 665 3 654 3 ct 642 3 631 1 621 -3 ct 610 -8 602 -15 594 -24 ct 586 -34 581 -47 576 -63 ct 
572 -79 570 -99 570 -122 ct 570 -146 572 -167 576 -183 ct 581 -199 587 -212 594 -221 ct 
602 -231 611 -237 621 -241 ct 631 -245 643 -247 655 -247 ct 666 -247 677 -245 687 -241 ct 
698 -237 706 -231 714 -221 ct 722 -212 728 -199 732 -183 ct 736 -167 739 -146 739 -122 ct 
p
707 -122 m  707 -141 706 -157 704 -170 ct 701 -183 698 -193 693 -201 ct 689 -209 683 -214 677 -217 ct 
670 -220 663 -222 655 -222 ct 646 -222 638 -220 632 -217 ct 625 -214 619 -208 615 -201 ct 
610 -193 607 -183 605 -170 ct 602 -157 601 -141 601 -122 ct 601 -103 602 -88 605 -75 ct 
607 -62 610 -52 615 -44 ct 620 -36 625 -31 632 -27 ct 638 -24 646 -22 654 -22 ct 
662 -22 670 -24 676 -27 ct 683 -31 688 -36 693 -44 ct 697 -52 701 -62 703 -75 ct 
706 -88 707 -103 707 -122 ct p ef
924 -122 m  924 -99 921 -79 917 -63 ct 912 -47 906 -34 899 -25 ct 891 -15 882 -8 872 -3 ct 
861 1 850 3 839 3 ct 827 3 816 1 806 -3 ct 795 -8 787 -15 779 -24 ct 771 -34 766 -47 761 -63 ct 
757 -79 755 -99 755 -122 ct 755 -146 757 -167 761 -183 ct 766 -199 772 -212 779 -221 ct 
787 -231 796 -237 806 -241 ct 816 -245 828 -247 840 -247 ct 851 -247 862 -245 872 -241 ct 
883 -237 891 -231 899 -221 ct 907 -212 913 -199 917 -183 ct 921 -167 924 -146 924 -122 ct 
p
892 -122 m  892 -141 891 -157 889 -170 ct 886 -183 883 -193 878 -201 ct 874 -209 868 -214 862 -217 ct 
855 -220 848 -222 840 -222 ct 831 -222 823 -220 817 -217 ct 810 -214 804 -208 800 -201 ct 
795 -193 792 -183 790 -170 ct 787 -157 786 -141 786 -122 ct 786 -103 787 -88 790 -75 ct 
792 -62 795 -52 800 -44 ct 805 -36 810 -31 817 -27 ct 823 -24 831 -22 839 -22 ct 
847 -22 855 -24 861 -27 ct 868 -31 873 -36 878 -44 ct 882 -52 886 -62 888 -75 ct 
891 -88 892 -103 892 -122 ct p ef
pom
pum
2699 11943 t
27 0 m  27 -26 l  89 -26 l  89 -213 l  34 -174 l  34 -204 l  91 -243 l 
120 -243 l  120 -26 l  179 -26 l  179 0 l  27 0 l  p ef
367 -80 m  367 -67 365 -56 361 -46 ct 357 -36 352 -27 345 -20 ct 337 -13 328 -7 318 -3 ct 
307 1 294 3 280 3 ct 268 3 256 1 247 -1 ct 237 -4 229 -9 223 -14 ct 216 -19 211 -25 207 -32 ct 
203 -39 201 -47 199 -55 ct 231 -58 l  232 -54 234 -49 236 -45 ct 238 -41 241 -37 245 -33 ct 
249 -30 254 -27 260 -25 ct 266 -23 273 -22 281 -22 ct 289 -22 296 -24 303 -26 ct 
309 -29 315 -32 320 -37 ct 324 -42 328 -48 330 -55 ct 333 -62 334 -70 334 -79 ct 
334 -86 333 -93 331 -99 ct 328 -106 325 -111 320 -116 ct 316 -120 310 -124 304 -126 ct 
297 -129 290 -130 282 -130 ct 277 -130 272 -130 267 -129 ct 263 -128 259 -126 255 -125 ct 
252 -123 248 -121 245 -119 ct 242 -117 239 -115 237 -113 ct 206 -113 l  214 -243 l 
352 -243 l  352 -217 l  243 -217 l  238 -140 l  243 -144 250 -148 259 -151 ct 
267 -154 277 -155 288 -155 ct 300 -155 311 -154 321 -150 ct 330 -146 339 -141 345 -134 ct 
352 -128 357 -120 361 -110 ct 365 -101 367 -91 367 -80 ct p ef
553 -122 m  553 -99 550 -79 546 -63 ct 541 -47 535 -34 528 -25 ct 520 -15 511 -8 501 -3 ct 
490 1 479 3 468 3 ct 456 3 445 1 435 -3 ct 424 -8 416 -15 408 -24 ct 400 -34 395 -47 390 -63 ct 
386 -79 384 -99 384 -122 ct 384 -146 386 -167 390 -183 ct 395 -199 401 -212 408 -221 ct 
416 -231 425 -237 435 -241 ct 445 -245 457 -247 469 -247 ct 480 -247 491 -245 501 -241 ct 
512 -237 520 -231 528 -221 ct 536 -212 542 -199 546 -183 ct 550 -167 553 -146 553 -122 ct 
p
521 -122 m  521 -141 520 -157 518 -170 ct 515 -183 512 -193 507 -201 ct 503 -209 497 -214 491 -217 ct 
484 -220 477 -222 469 -222 ct 460 -222 452 -220 446 -217 ct 439 -214 433 -208 429 -201 ct 
424 -193 421 -183 419 -170 ct 416 -157 415 -141 415 -122 ct 415 -103 416 -88 419 -75 ct 
421 -62 424 -52 429 -44 ct 434 -36 439 -31 446 -27 ct 452 -24 460 -22 468 -22 ct 
476 -22 484 -24 490 -27 ct 497 -31 502 -36 507 -44 ct 511 -52 515 -62 517 -75 ct 
520 -88 521 -103 521 -122 ct p ef
739 -122 m  739 -99 736 -79 732 -63 ct 727 -47 721 -34 714 -25 ct 706 -15 697 -8 687 -3 ct 
676 1 665 3 654 3 ct 642 3 631 1 621 -3 ct 610 -8 602 -15 594 -24 ct 586 -34 581 -47 576 -63 ct 
572 -79 570 -99 570 -122 ct 570 -146 572 -167 576 -183 ct 581 -199 587 -212 594 -221 ct 
602 -231 611 -237 621 -241 ct 631 -245 643 -247 655 -247 ct 666 -247 677 -245 687 -241 ct 
698 -237 706 -231 714 -221 ct 722 -212 728 -199 732 -183 ct 736 -167 739 -146 739 -122 ct 
p
707 -122 m  707 -141 706 -157 704 -170 ct 701 -183 698 -193 693 -201 ct 689 -209 683 -214 677 -217 ct 
670 -220 663 -222 655 -222 ct 646 -222 638 -220 632 -217 ct 625 -214 619 -208 615 -201 ct 
610 -193 607 -183 605 -170 ct 602 -157 601 -141 601 -122 ct 601 -103 602 -88 605 -75 ct 
607 -62 610 -52 615 -44 ct 620 -36 625 -31 632 -27 ct 638 -24 646 -22 654 -22 ct 
662 -22 670 -24 676 -27 ct 683 -31 688 -36 693 -44 ct 697 -52 701 -62 703 -75 ct 
706 -88 707 -103 707 -122 ct p ef
924 -122 m  924 -99 921 -79 917 -63 ct 912 -47 906 -34 899 -25 ct 891 -15 882 -8 872 -3 ct 
861 1 850 3 839 3 ct 827 3 816 1 806 -3 ct 795 -8 787 -15 779 -24 ct 771 -34 766 -47 761 -63 ct 
757 -79 755 -99 755 -122 ct 755 -146 757 -167 761 -183 ct 766 -199 772 -212 779 -221 ct 
787 -231 796 -237 806 -241 ct 816 -245 828 -247 840 -247 ct 851 -247 862 -245 872 -241 ct 
883 -237 891 -231 899 -221 ct 907 -212 913 -199 917 -183 ct 921 -167 924 -146 924 -122 ct 
p
892 -122 m  892 -141 891 -157 889 -170 ct 886 -183 883 -193 878 -201 ct 874 -209 868 -214 862 -217 ct 
855 -220 848 -222 840 -222 ct 831 -222 823 -220 817 -217 ct 810 -214 804 -208 800 -201 ct 
795 -193 792 -183 790 -170 ct 787 -157 786 -141 786 -122 ct 786 -103 787 -88 790 -75 ct 
792 -62 795 -52 800 -44 ct 805 -36 810 -31 817 -27 ct 823 -24 831 -22 839 -22 ct 
847 -22 855 -24 861 -27 ct 868 -31 873 -36 878 -44 ct 882 -52 886 -62 888 -75 ct 
891 -88 892 -103 892 -122 ct p ef
pom
pum
2699 10826 t
18 0 m  18 -22 l  24 -35 31 -47 39 -58 ct 48 -68 57 -77 66 -85 ct 75 -94 84 -101 94 -109 ct 
103 -116 111 -123 118 -130 ct 126 -137 132 -145 136 -152 ct 141 -160 143 -169 143 -179 ct 
143 -186 142 -192 140 -197 ct 138 -202 135 -207 131 -210 ct 127 -214 122 -217 117 -218 ct 
111 -220 105 -221 99 -221 ct 92 -221 87 -220 81 -218 ct 76 -217 71 -214 67 -211 ct 
62 -207 59 -203 56 -198 ct 53 -193 52 -187 51 -180 ct 19 -183 l  20 -192 23 -200 26 -208 ct 
30 -215 35 -222 42 -228 ct 49 -234 57 -238 66 -242 ct 75 -245 86 -247 99 -247 ct 
111 -247 121 -245 131 -242 ct 140 -239 148 -235 155 -229 ct 161 -224 166 -217 170 -209 ct 
173 -200 175 -191 175 -180 ct 175 -172 173 -164 170 -157 ct 167 -149 164 -142 159 -136 ct 
154 -129 148 -123 142 -116 ct 135 -110 129 -104 122 -98 ct 115 -92 107 -86 100 -81 ct 
93 -75 87 -69 80 -63 ct 74 -57 68 -51 63 -45 ct 58 -39 55 -33 52 -26 ct 179 -26 l 
179 0 l  18 0 l  p ef
368 -122 m  368 -99 365 -79 361 -63 ct 356 -47 350 -34 343 -25 ct 335 -15 326 -8 316 -3 ct 
305 1 294 3 283 3 ct 271 3 260 1 250 -3 ct 239 -8 231 -15 223 -24 ct 215 -34 210 -47 205 -63 ct 
201 -79 199 -99 199 -122 ct 199 -146 201 -167 205 -183 ct 210 -199 216 -212 223 -221 ct 
231 -231 240 -237 250 -241 ct 260 -245 272 -247 284 -247 ct 295 -247 306 -245 316 -241 ct 
327 -237 335 -231 343 -221 ct 351 -212 357 -199 361 -183 ct 365 -167 368 -146 368 -122 ct 
p
336 -122 m  336 -141 335 -157 333 -170 ct 330 -183 327 -193 322 -201 ct 318 -209 312 -214 306 -217 ct 
299 -220 292 -222 284 -222 ct 275 -222 267 -220 261 -217 ct 254 -214 248 -208 244 -201 ct 
239 -193 236 -183 234 -170 ct 231 -157 230 -141 230 -122 ct 230 -103 231 -88 234 -75 ct 
236 -62 239 -52 244 -44 ct 249 -36 254 -31 261 -27 ct 267 -24 275 -22 283 -22 ct 
291 -22 299 -24 305 -27 ct 312 -31 317 -36 322 -44 ct 326 -52 330 -62 332 -75 ct 
335 -88 336 -103 336 -122 ct p ef
553 -122 m  553 -99 550 -79 546 -63 ct 541 -47 535 -34 528 -25 ct 520 -15 511 -8 501 -3 ct 
490 1 479 3 468 3 ct 456 3 445 1 435 -3 ct 424 -8 416 -15 408 -24 ct 400 -34 395 -47 390 -63 ct 
386 -79 384 -99 384 -122 ct 384 -146 386 -167 390 -183 ct 395 -199 401 -212 408 -221 ct 
416 -231 425 -237 435 -241 ct 445 -245 457 -247 469 -247 ct 480 -247 491 -245 501 -241 ct 
512 -237 520 -231 528 -221 ct 536 -212 542 -199 546 -183 ct 550 -167 553 -146 553 -122 ct 
p
521 -122 m  521 -141 520 -157 518 -170 ct 515 -183 512 -193 507 -201 ct 503 -209 497 -214 491 -217 ct 
484 -220 477 -222 469 -222 ct 460 -222 452 -220 446 -217 ct 439 -214 433 -208 429 -201 ct 
424 -193 421 -183 419 -170 ct 416 -157 415 -141 415 -122 ct 415 -103 416 -88 419 -75 ct 
421 -62 424 -52 429 -44 ct 434 -36 439 -31 446 -27 ct 452 -24 460 -22 468 -22 ct 
476 -22 484 -24 490 -27 ct 497 -31 502 -36 507 -44 ct 511 -52 515 -62 517 -75 ct 
520 -88 521 -103 521 -122 ct p ef
739 -122 m  739 -99 736 -79 732 -63 ct 727 -47 721 -34 714 -25 ct 706 -15 697 -8 687 -3 ct 
676 1 665 3 654 3 ct 642 3 631 1 621 -3 ct 610 -8 602 -15 594 -24 ct 586 -34 581 -47 576 -63 ct 
572 -79 570 -99 570 -122 ct 570 -146 572 -167 576 -183 ct 581 -199 587 -212 594 -221 ct 
602 -231 611 -237 621 -241 ct 631 -245 643 -247 655 -247 ct 666 -247 677 -245 687 -241 ct 
698 -237 706 -231 714 -221 ct 722 -212 728 -199 732 -183 ct 736 -167 739 -146 739 -122 ct 
p
707 -122 m  707 -141 706 -157 704 -170 ct 701 -183 698 -193 693 -201 ct 689 -209 683 -214 677 -217 ct 
670 -220 663 -222 655 -222 ct 646 -222 638 -220 632 -217 ct 625 -214 619 -208 615 -201 ct 
610 -193 607 -183 605 -170 ct 602 -157 601 -141 601 -122 ct 601 -103 602 -88 605 -75 ct 
607 -62 610 -52 615 -44 ct 620 -36 625 -31 632 -27 ct 638 -24 646 -22 654 -22 ct 
662 -22 670 -24 676 -27 ct 683 -31 688 -36 693 -44 ct 697 -52 701 -62 703 -75 ct 
706 -88 707 -103 707 -122 ct p ef
924 -122 m  924 -99 921 -79 917 -63 ct 912 -47 906 -34 899 -25 ct 891 -15 882 -8 872 -3 ct 
861 1 850 3 839 3 ct 827 3 816 1 806 -3 ct 795 -8 787 -15 779 -24 ct 771 -34 766 -47 761 -63 ct 
757 -79 755 -99 755 -122 ct 755 -146 757 -167 761 -183 ct 766 -199 772 -212 779 -221 ct 
787 -231 796 -237 806 -241 ct 816 -245 828 -247 840 -247 ct 851 -247 862 -245 872 -241 ct 
883 -237 891 -231 899 -221 ct 907 -212 913 -199 917 -183 ct 921 -167 924 -146 924 -122 ct 
p
892 -122 m  892 -141 891 -157 889 -170 ct 886 -183 883 -193 878 -201 ct 874 -209 868 -214 862 -217 ct 
855 -220 848 -222 840 -222 ct 831 -222 823 -220 817 -217 ct 810 -214 804 -208 800 -201 ct 
795 -193 792 -183 790 -170 ct 787 -157 786 -141 786 -122 ct 786 -103 787 -88 790 -75 ct 
792 -62 795 -52 800 -44 ct 805 -36 810 -31 817 -27 ct 823 -24 831 -22 839 -22 ct 
847 -22 855 -24 861 -27 ct 868 -31 873 -36 878 -44 ct 882 -52 886 -62 888 -75 ct 
891 -88 892 -103 892 -122 ct p ef
pom
pum
2699 9710 t
18 0 m  18 -22 l  24 -35 31 -47 39 -58 ct 48 -68 57 -77 66 -85 ct 75 -94 84 -101 94 -109 ct 
103 -116 111 -123 118 -130 ct 126 -137 132 -145 136 -152 ct 141 -160 143 -169 143 -179 ct 
143 -186 142 -192 140 -197 ct 138 -202 135 -207 131 -210 ct 127 -214 122 -217 117 -218 ct 
111 -220 105 -221 99 -221 ct 92 -221 87 -220 81 -218 ct 76 -217 71 -214 67 -211 ct 
62 -207 59 -203 56 -198 ct 53 -193 52 -187 51 -180 ct 19 -183 l  20 -192 23 -200 26 -208 ct 
30 -215 35 -222 42 -228 ct 49 -234 57 -238 66 -242 ct 75 -245 86 -247 99 -247 ct 
111 -247 121 -245 131 -242 ct 140 -239 148 -235 155 -229 ct 161 -224 166 -217 170 -209 ct 
173 -200 175 -191 175 -180 ct 175 -172 173 -164 170 -157 ct 167 -149 164 -142 159 -136 ct 
154 -129 148 -123 142 -116 ct 135 -110 129 -104 122 -98 ct 115 -92 107 -86 100 -81 ct 
93 -75 87 -69 80 -63 ct 74 -57 68 -51 63 -45 ct 58 -39 55 -33 52 -26 ct 179 -26 l 
179 0 l  18 0 l  p ef
367 -80 m  367 -67 365 -56 361 -46 ct 357 -36 352 -27 345 -20 ct 337 -13 328 -7 318 -3 ct 
307 1 294 3 280 3 ct 268 3 256 1 247 -1 ct 237 -4 229 -9 223 -14 ct 216 -19 211 -25 207 -32 ct 
203 -39 201 -47 199 -55 ct 231 -58 l  232 -54 234 -49 236 -45 ct 238 -41 241 -37 245 -33 ct 
249 -30 254 -27 260 -25 ct 266 -23 273 -22 281 -22 ct 289 -22 296 -24 303 -26 ct 
309 -29 315 -32 320 -37 ct 324 -42 328 -48 330 -55 ct 333 -62 334 -70 334 -79 ct 
334 -86 333 -93 331 -99 ct 328 -106 325 -111 320 -116 ct 316 -120 310 -124 304 -126 ct 
297 -129 290 -130 282 -130 ct 277 -130 272 -130 267 -129 ct 263 -128 259 -126 255 -125 ct 
252 -123 248 -121 245 -119 ct 242 -117 239 -115 237 -113 ct 206 -113 l  214 -243 l 
352 -243 l  352 -217 l  243 -217 l  238 -140 l  243 -144 250 -148 259 -151 ct 
267 -154 277 -155 288 -155 ct 300 -155 311 -154 321 -150 ct 330 -146 339 -141 345 -134 ct 
352 -128 357 -120 361 -110 ct 365 -101 367 -91 367 -80 ct p ef
553 -122 m  553 -99 550 -79 546 -63 ct 541 -47 535 -34 528 -25 ct 520 -15 511 -8 501 -3 ct 
490 1 479 3 468 3 ct 456 3 445 1 435 -3 ct 424 -8 416 -15 408 -24 ct 400 -34 395 -47 390 -63 ct 
386 -79 384 -99 384 -122 ct 384 -146 386 -167 390 -183 ct 395 -199 401 -212 408 -221 ct 
416 -231 425 -237 435 -241 ct 445 -245 457 -247 469 -247 ct 480 -247 491 -245 501 -241 ct 
512 -237 520 -231 528 -221 ct 536 -212 542 -199 546 -183 ct 550 -167 553 -146 553 -122 ct 
p
521 -122 m  521 -141 520 -157 518 -170 ct 515 -183 512 -193 507 -201 ct 503 -209 497 -214 491 -217 ct 
484 -220 477 -222 469 -222 ct 460 -222 452 -220 446 -217 ct 439 -214 433 -208 429 -201 ct 
424 -193 421 -183 419 -170 ct 416 -157 415 -141 415 -122 ct 415 -103 416 -88 419 -75 ct 
421 -62 424 -52 429 -44 ct 434 -36 439 -31 446 -27 ct 452 -24 460 -22 468 -22 ct 
476 -22 484 -24 490 -27 ct 497 -31 502 -36 507 -44 ct 511 -52 515 -62 517 -75 ct 
520 -88 521 -103 521 -122 ct p ef
739 -122 m  739 -99 736 -79 732 -63 ct 727 -47 721 -34 714 -25 ct 706 -15 697 -8 687 -3 ct 
676 1 665 3 654 3 ct 642 3 631 1 621 -3 ct 610 -8 602 -15 594 -24 ct 586 -34 581 -47 576 -63 ct 
572 -79 570 -99 570 -122 ct 570 -146 572 -167 576 -183 ct 581 -199 587 -212 594 -221 ct 
602 -231 611 -237 621 -241 ct 631 -245 643 -247 655 -247 ct 666 -247 677 -245 687 -241 ct 
698 -237 706 -231 714 -221 ct 722 -212 728 -199 732 -183 ct 736 -167 739 -146 739 -122 ct 
p
707 -122 m  707 -141 706 -157 704 -170 ct 701 -183 698 -193 693 -201 ct 689 -209 683 -214 677 -217 ct 
670 -220 663 -222 655 -222 ct 646 -222 638 -220 632 -217 ct 625 -214 619 -208 615 -201 ct 
610 -193 607 -183 605 -170 ct 602 -157 601 -141 601 -122 ct 601 -103 602 -88 605 -75 ct 
607 -62 610 -52 615 -44 ct 620 -36 625 -31 632 -27 ct 638 -24 646 -22 654 -22 ct 
662 -22 670 -24 676 -27 ct 683 -31 688 -36 693 -44 ct 697 -52 701 -62 703 -75 ct 
706 -88 707 -103 707 -122 ct p ef
924 -122 m  924 -99 921 -79 917 -63 ct 912 -47 906 -34 899 -25 ct 891 -15 882 -8 872 -3 ct 
861 1 850 3 839 3 ct 827 3 816 1 806 -3 ct 795 -8 787 -15 779 -24 ct 771 -34 766 -47 761 -63 ct 
757 -79 755 -99 755 -122 ct 755 -146 757 -167 761 -183 ct 766 -199 772 -212 779 -221 ct 
787 -231 796 -237 806 -241 ct 816 -245 828 -247 840 -247 ct 851 -247 862 -245 872 -241 ct 
883 -237 891 -231 899 -221 ct 907 -212 913 -199 917 -183 ct 921 -167 924 -146 924 -122 ct 
p
892 -122 m  892 -141 891 -157 889 -170 ct 886 -183 883 -193 878 -201 ct 874 -209 868 -214 862 -217 ct 
855 -220 848 -222 840 -222 ct 831 -222 823 -220 817 -217 ct 810 -214 804 -208 800 -201 ct 
795 -193 792 -183 790 -170 ct 787 -157 786 -141 786 -122 ct 786 -103 787 -88 790 -75 ct 
792 -62 795 -52 800 -44 ct 805 -36 810 -31 817 -27 ct 823 -24 831 -22 839 -22 ct 
847 -22 855 -24 861 -27 ct 868 -31 873 -36 878 -44 ct 882 -52 886 -62 888 -75 ct 
891 -88 892 -103 892 -122 ct p ef
pom
pum
2699 8594 t
181 -68 m  181 -57 179 -47 175 -38 ct 172 -29 166 -22 160 -16 ct 153 -10 144 -5 134 -2 ct 
123 1 112 3 98 3 ct 83 3 71 1 60 -3 ct 50 -6 42 -11 35 -17 ct 28 -24 23 -31 20 -39 ct 
17 -46 14 -55 13 -63 ct 46 -66 l  46 -60 48 -54 51 -48 ct 53 -43 56 -38 61 -35 ct 
65 -31 70 -28 76 -26 ct 83 -24 90 -23 98 -23 ct 114 -23 126 -27 135 -34 ct 144 -42 149 -54 149 -69 ct 
149 -78 147 -85 143 -90 ct 139 -96 134 -100 128 -103 ct 122 -106 115 -108 109 -109 ct 
102 -110 95 -111 89 -111 ct 72 -111 l  72 -138 l  89 -138 l  94 -138 101 -139 107 -140 ct 
113 -141 119 -143 124 -146 ct 129 -149 134 -154 137 -159 ct 141 -164 142 -171 142 -180 ct 
142 -193 138 -203 131 -210 ct 123 -218 112 -221 97 -221 ct 83 -221 72 -218 64 -211 ct 
55 -204 50 -194 49 -182 ct 18 -184 l  19 -195 22 -204 26 -212 ct 31 -220 37 -226 44 -231 ct 
51 -237 59 -241 68 -243 ct 77 -246 87 -247 97 -247 ct 111 -247 122 -245 132 -242 ct 
142 -239 150 -234 156 -228 ct 162 -222 167 -216 170 -208 ct 173 -200 174 -192 174 -183 ct 
174 -176 173 -169 171 -163 ct 169 -157 166 -151 162 -146 ct 158 -141 153 -137 146 -134 ct 
140 -130 132 -127 123 -125 ct 123 -125 l  133 -124 142 -122 149 -118 ct 156 -115 162 -111 167 -105 ct 
171 -100 175 -95 177 -88 ct 180 -82 181 -75 181 -68 ct p ef
368 -122 m  368 -99 365 -79 361 -63 ct 356 -47 350 -34 343 -25 ct 335 -15 326 -8 316 -3 ct 
305 1 294 3 283 3 ct 271 3 260 1 250 -3 ct 239 -8 231 -15 223 -24 ct 215 -34 210 -47 205 -63 ct 
201 -79 199 -99 199 -122 ct 199 -146 201 -167 205 -183 ct 210 -199 216 -212 223 -221 ct 
231 -231 240 -237 250 -241 ct 260 -245 272 -247 284 -247 ct 295 -247 306 -245 316 -241 ct 
327 -237 335 -231 343 -221 ct 351 -212 357 -199 361 -183 ct 365 -167 368 -146 368 -122 ct 
p
336 -122 m  336 -141 335 -157 333 -170 ct 330 -183 327 -193 322 -201 ct 318 -209 312 -214 306 -217 ct 
299 -220 292 -222 284 -222 ct 275 -222 267 -220 261 -217 ct 254 -214 248 -208 244 -201 ct 
239 -193 236 -183 234 -170 ct 231 -157 230 -141 230 -122 ct 230 -103 231 -88 234 -75 ct 
236 -62 239 -52 244 -44 ct 249 -36 254 -31 261 -27 ct 267 -24 275 -22 283 -22 ct 
291 -22 299 -24 305 -27 ct 312 -31 317 -36 322 -44 ct 326 -52 330 -62 332 -75 ct 
335 -88 336 -103 336 -122 ct p ef
553 -122 m  553 -99 550 -79 546 -63 ct 541 -47 535 -34 528 -25 ct 520 -15 511 -8 501 -3 ct 
490 1 479 3 468 3 ct 456 3 445 1 435 -3 ct 424 -8 416 -15 408 -24 ct 400 -34 395 -47 390 -63 ct 
386 -79 384 -99 384 -122 ct 384 -146 386 -167 390 -183 ct 395 -199 401 -212 408 -221 ct 
416 -231 425 -237 435 -241 ct 445 -245 457 -247 469 -247 ct 480 -247 491 -245 501 -241 ct 
512 -237 520 -231 528 -221 ct 536 -212 542 -199 546 -183 ct 550 -167 553 -146 553 -122 ct 
p
521 -122 m  521 -141 520 -157 518 -170 ct 515 -183 512 -193 507 -201 ct 503 -209 497 -214 491 -217 ct 
484 -220 477 -222 469 -222 ct 460 -222 452 -220 446 -217 ct 439 -214 433 -208 429 -201 ct 
424 -193 421 -183 419 -170 ct 416 -157 415 -141 415 -122 ct 415 -103 416 -88 419 -75 ct 
421 -62 424 -52 429 -44 ct 434 -36 439 -31 446 -27 ct 452 -24 460 -22 468 -22 ct 
476 -22 484 -24 490 -27 ct 497 -31 502 -36 507 -44 ct 511 -52 515 -62 517 -75 ct 
520 -88 521 -103 521 -122 ct p ef
739 -122 m  739 -99 736 -79 732 -63 ct 727 -47 721 -34 714 -25 ct 706 -15 697 -8 687 -3 ct 
676 1 665 3 654 3 ct 642 3 631 1 621 -3 ct 610 -8 602 -15 594 -24 ct 586 -34 581 -47 576 -63 ct 
572 -79 570 -99 570 -122 ct 570 -146 572 -167 576 -183 ct 581 -199 587 -212 594 -221 ct 
602 -231 611 -237 621 -241 ct 631 -245 643 -247 655 -247 ct 666 -247 677 -245 687 -241 ct 
698 -237 706 -231 714 -221 ct 722 -212 728 -199 732 -183 ct 736 -167 739 -146 739 -122 ct 
p
707 -122 m  707 -141 706 -157 704 -170 ct 701 -183 698 -193 693 -201 ct 689 -209 683 -214 677 -217 ct 
670 -220 663 -222 655 -222 ct 646 -222 638 -220 632 -217 ct 625 -214 619 -208 615 -201 ct 
610 -193 607 -183 605 -170 ct 602 -157 601 -141 601 -122 ct 601 -103 602 -88 605 -75 ct 
607 -62 610 -52 615 -44 ct 620 -36 625 -31 632 -27 ct 638 -24 646 -22 654 -22 ct 
662 -22 670 -24 676 -27 ct 683 -31 688 -36 693 -44 ct 697 -52 701 -62 703 -75 ct 
706 -88 707 -103 707 -122 ct p ef
924 -122 m  924 -99 921 -79 917 -63 ct 912 -47 906 -34 899 -25 ct 891 -15 882 -8 872 -3 ct 
861 1 850 3 839 3 ct 827 3 816 1 806 -3 ct 795 -8 787 -15 779 -24 ct 771 -34 766 -47 761 -63 ct 
757 -79 755 -99 755 -122 ct 755 -146 757 -167 761 -183 ct 766 -199 772 -212 779 -221 ct 
787 -231 796 -237 806 -241 ct 816 -245 828 -247 840 -247 ct 851 -247 862 -245 872 -241 ct 
883 -237 891 -231 899 -221 ct 907 -212 913 -199 917 -183 ct 921 -167 924 -146 924 -122 ct 
p
892 -122 m  892 -141 891 -157 889 -170 ct 886 -183 883 -193 878 -201 ct 874 -209 868 -214 862 -217 ct 
855 -220 848 -222 840 -222 ct 831 -222 823 -220 817 -217 ct 810 -214 804 -208 800 -201 ct 
795 -193 792 -183 790 -170 ct 787 -157 786 -141 786 -122 ct 786 -103 787 -88 790 -75 ct 
792 -62 795 -52 800 -44 ct 805 -36 810 -31 817 -27 ct 823 -24 831 -22 839 -22 ct 
847 -22 855 -24 861 -27 ct 868 -31 873 -36 878 -44 ct 882 -52 886 -62 888 -75 ct 
891 -88 892 -103 892 -122 ct p ef
pom
0.003 0.273 0.527 c 15136 13021 m  14736 13021 l  14736 12810 l  15536 12810 l 
15536 13021 l  15136 13021 l  p ef
1.000 0.261 0.058 c 15136 12523 m  14736 12523 l  14736 12312 l  15536 12312 l 
15536 12523 l  15136 12523 l  p ef
1.000 0.828 0.128 c 15136 12025 m  14736 12025 l  14736 11815 l  15536 11815 l 
15536 12025 l  15136 12025 l  p ef
0.343 0.617 0.113 c 15136 11528 m  14736 11528 l  14736 11317 l  15536 11317 l 
15536 11528 l  15136 11528 l  p ef
0.496 0.003 0.132 c 15136 11030 m  14736 11030 l  14736 10819 l  15536 10819 l 
15536 11030 l  15136 11030 l  p ef
0.515 0.792 1.000 c 15136 10532 m  14736 10532 l  14736 10321 l  15536 10321 l 
15536 10532 l  15136 10532 l  p ef
0.195 0.253 0.019 c 14736 13413 m  15536 13413 l  ps
pum
15636 10546 t
0.003 0.003 0.003 c 258 -123 m  258 -104 255 -87 250 -71 ct 244 -56 236 -43 226 -31 ct 
215 -20 203 -12 188 -6 ct 173 0 156 3 137 3 ct 117 3 100 0 84 -6 ct 69 -13 57 -21 47 -33 ct 
37 -44 29 -57 24 -73 ct 19 -88 17 -105 17 -123 ct 17 -142 19 -159 25 -174 ct 30 -190 38 -203 48 -213 ct 
58 -224 71 -232 86 -238 ct 101 -244 118 -247 137 -247 ct 157 -247 174 -244 189 -238 ct 
204 -232 216 -224 227 -213 ct 237 -202 244 -189 250 -174 ct 255 -159 258 -142 258 -123 ct 
p
224 -123 m  224 -138 222 -151 218 -163 ct 215 -175 209 -185 202 -194 ct 195 -202 186 -209 175 -213 ct 
164 -218 152 -220 137 -220 ct 123 -220 110 -218 99 -213 ct 88 -209 79 -202 72 -194 ct 
65 -185 59 -175 56 -163 ct 52 -151 50 -138 50 -123 ct 50 -108 52 -95 56 -83 ct 
59 -71 65 -60 72 -52 ct 80 -43 89 -36 100 -31 ct 110 -26 123 -24 137 -24 ct 152 -24 165 -26 176 -31 ct 
187 -36 196 -43 203 -52 ct 210 -61 216 -71 219 -83 ct 222 -95 224 -109 224 -123 ct 
p ef
389 -216 m  389 0 l  356 0 l  356 -216 l  273 -216 l  273 -243 l  473 -243 l 
473 -216 l  389 -216 l  p ef
669 0 m  669 -112 l  538 -112 l  538 0 l  505 0 l  505 -243 l  538 -243 l 
538 -140 l  669 -140 l  669 -243 l  702 -243 l  702 0 l  669 0 l  p ef
743 0 m  743 -243 l  927 -243 l  927 -216 l  776 -216 l  776 -138 l  917 -138 l 
917 -111 l  776 -111 l  776 -27 l  934 -27 l  934 0 l  743 0 l  p ef
1154 0 m  1091 -101 l  1015 -101 l  1015 0 l  982 0 l  982 -243 l  1096 -243 l 
1110 -243 1122 -241 1133 -238 ct 1144 -235 1152 -231 1160 -225 ct 1167 -219 1172 -211 1176 -203 ct 
1180 -194 1182 -184 1182 -174 ct 1182 -166 1181 -158 1179 -151 ct 1176 -143 1173 -137 1168 -130 ct 
1163 -124 1157 -119 1150 -114 ct 1142 -110 1133 -107 1123 -105 ct 1192 0 l  1154 0 l 
p
1149 -173 m  1149 -181 1148 -187 1145 -192 ct 1142 -198 1139 -202 1134 -206 ct 
1129 -209 1123 -212 1116 -214 ct 1110 -216 1102 -217 1093 -217 ct 1015 -217 l 
1015 -127 l  1094 -127 l  1104 -127 1112 -128 1119 -131 ct 1126 -133 1131 -136 1136 -140 ct 
1140 -144 1143 -149 1146 -155 ct 1148 -161 1149 -167 1149 -173 ct p ef
pom
pum
15636 11044 t
137 -220 m  123 -220 111 -218 100 -213 ct 89 -209 80 -202 73 -194 ct 66 -185 61 -175 57 -163 ct 
53 -151 51 -138 51 -123 ct 51 -108 53 -95 57 -83 ct 61 -71 67 -60 74 -52 ct 82 -43 91 -36 102 -31 ct 
112 -26 124 -24 138 -24 ct 147 -24 156 -25 164 -28 ct 171 -30 178 -34 185 -38 ct 
191 -43 197 -48 201 -54 ct 206 -60 211 -67 215 -75 ct 241 -61 l  237 -52 232 -44 225 -36 ct 
219 -28 211 -21 203 -15 ct 194 -10 184 -5 173 -2 ct 162 1 150 3 136 3 ct 117 3 99 0 85 -6 ct 
70 -13 58 -21 48 -33 ct 38 -44 30 -57 25 -73 ct 20 -88 18 -105 18 -123 ct 18 -142 21 -159 26 -174 ct 
31 -190 39 -203 49 -213 ct 59 -224 71 -232 86 -238 ct 101 -244 117 -247 136 -247 ct 
162 -247 184 -242 201 -232 ct 218 -222 231 -207 239 -187 ct 208 -176 l  206 -182 203 -188 199 -193 ct 
195 -198 190 -203 184 -207 ct 178 -211 171 -214 163 -216 ct 156 -219 147 -220 137 -220 ct 
p ef
476 -124 m  476 -104 473 -86 467 -70 ct 461 -55 452 -42 442 -32 ct 431 -21 419 -13 404 -8 ct 
390 -3 374 0 358 0 ct 267 0 l  267 -243 l  347 -243 l  366 -243 383 -241 399 -236 ct 
415 -231 428 -224 440 -214 ct 451 -205 460 -192 466 -177 ct 473 -163 476 -145 476 -124 ct 
p
443 -124 m  443 -140 441 -155 436 -166 ct 431 -178 425 -187 416 -195 ct 408 -202 397 -208 386 -211 ct 
374 -215 361 -217 347 -217 ct 300 -217 l  300 -26 l  354 -26 l  367 -26 379 -28 389 -33 ct 
400 -37 410 -43 418 -51 ct 426 -59 432 -69 436 -82 ct 441 -94 443 -108 443 -124 ct 
p ef
538 -216 m  538 -125 l  673 -125 l  673 -98 l  538 -98 l  538 1 l  505 1 l 
505 -243 l  678 -243 l  678 -216 l  538 -216 l  p ef
pom
pum
15636 11542 t
29 0 m  29 -243 l  62 -243 l  62 -27 l  185 -27 l  185 0 l  29 0 l  p ef
378 0 m  378 -112 l  247 -112 l  247 0 l  214 0 l  214 -243 l  247 -243 l 
247 -140 l  378 -140 l  378 -243 l  411 -243 l  411 0 l  378 0 l  p ef
560 -220 m  546 -220 534 -218 523 -213 ct 512 -209 503 -202 496 -194 ct 489 -185 484 -175 480 -163 ct 
476 -151 474 -138 474 -123 ct 474 -108 476 -95 480 -83 ct 484 -71 490 -60 497 -52 ct 
505 -43 514 -36 525 -31 ct 535 -26 547 -24 561 -24 ct 570 -24 579 -25 587 -28 ct 
594 -30 601 -34 608 -38 ct 614 -43 620 -48 624 -54 ct 629 -60 634 -67 638 -75 ct 
664 -61 l  660 -52 655 -44 648 -36 ct 642 -28 634 -21 626 -15 ct 617 -10 607 -5 596 -2 ct 
585 1 573 3 559 3 ct 540 3 522 0 508 -6 ct 493 -13 481 -21 471 -33 ct 461 -44 453 -57 448 -73 ct 
443 -88 441 -105 441 -123 ct 441 -142 444 -159 449 -174 ct 454 -190 462 -203 472 -213 ct 
482 -224 494 -232 509 -238 ct 524 -244 540 -247 559 -247 ct 585 -247 607 -242 624 -232 ct 
641 -222 654 -207 662 -187 ct 631 -176 l  629 -182 626 -188 622 -193 ct 618 -198 613 -203 607 -207 ct 
601 -211 594 -214 586 -216 ct 579 -219 570 -220 560 -220 ct p ef
843 -94 m  843 -29 820 3 774 3 ct 760 3 748 0 739 -5 ct 729 -10 722 -18 716 -29 ct 
715 -29 l  715 -26 715 -23 715 -20 ct 715 -17 715 -14 715 -11 ct 715 -8 714 -6 714 -4 ct 
714 -2 714 -1 714 0 ct 684 0 l  684 -1 684 -3 684 -5 ct 684 -8 684 -11 684 -14 ct 
685 -18 685 -22 685 -26 ct 685 -30 685 -34 685 -39 ct 685 -256 l  716 -256 l 
716 -183 l  716 -180 716 -176 716 -173 ct 716 -170 716 -167 715 -165 ct 715 -162 715 -159 715 -157 ct 
716 -157 l  722 -169 729 -177 739 -182 ct 748 -187 760 -190 774 -190 ct 797 -190 815 -182 826 -166 ct 
837 -150 843 -126 843 -94 ct p
810 -93 m  810 -106 809 -117 808 -126 ct 806 -136 803 -143 800 -149 ct 796 -155 792 -159 786 -162 ct 
781 -165 774 -166 766 -166 ct 758 -166 751 -165 744 -162 ct 738 -159 733 -155 729 -149 ct 
724 -144 721 -136 719 -126 ct 717 -117 716 -105 716 -91 ct 716 -78 717 -67 719 -58 ct 
721 -49 724 -42 729 -36 ct 733 -30 738 -26 744 -24 ct 750 -21 758 -20 766 -20 ct 
773 -20 780 -21 785 -24 ct 791 -27 795 -31 799 -37 ct 803 -42 805 -50 807 -59 ct 
809 -69 810 -80 810 -93 ct p ef
pom
pum
15636 12039 t
137 -220 m  123 -220 111 -218 100 -213 ct 89 -209 80 -202 73 -194 ct 66 -185 61 -175 57 -163 ct 
53 -151 51 -138 51 -123 ct 51 -108 53 -95 57 -83 ct 61 -71 67 -60 74 -52 ct 82 -43 91 -36 102 -31 ct 
112 -26 124 -24 138 -24 ct 147 -24 156 -25 164 -28 ct 171 -30 178 -34 185 -38 ct 
191 -43 197 -48 201 -54 ct 206 -60 211 -67 215 -75 ct 241 -61 l  237 -52 232 -44 225 -36 ct 
219 -28 211 -21 203 -15 ct 194 -10 184 -5 173 -2 ct 162 1 150 3 136 3 ct 117 3 99 0 85 -6 ct 
70 -13 58 -21 48 -33 ct 38 -44 30 -57 25 -73 ct 20 -88 18 -105 18 -123 ct 18 -142 21 -159 26 -174 ct 
31 -190 39 -203 49 -213 ct 59 -224 71 -232 86 -238 ct 101 -244 117 -247 136 -247 ct 
162 -247 184 -242 201 -232 ct 218 -222 231 -207 239 -187 ct 208 -176 l  206 -182 203 -188 199 -193 ct 
195 -198 190 -203 184 -207 ct 178 -211 171 -214 163 -216 ct 156 -219 147 -220 137 -220 ct 
p ef
473 0 m  473 -162 l  473 -168 474 -174 474 -180 ct 474 -186 474 -192 474 -197 ct 
474 -203 475 -208 475 -214 ct 473 -208 472 -202 470 -196 ct 469 -191 467 -186 465 -181 ct 
463 -175 462 -170 460 -166 ct 397 0 l  374 0 l  310 -166 l  310 -167 309 -169 308 -172 ct 
308 -174 307 -176 306 -179 ct 305 -181 304 -184 303 -187 ct 302 -190 302 -192 301 -195 ct 
299 -201 297 -207 295 -214 ct 295 -207 295 -201 296 -195 ct 296 -189 296 -184 296 -178 ct 
296 -172 296 -167 296 -162 ct 296 0 l  267 0 l  267 -243 l  310 -243 l  375 -74 l 
376 -72 377 -69 378 -66 ct 379 -62 380 -58 381 -54 ct 382 -51 383 -47 384 -44 ct 
385 -40 385 -38 386 -36 ct 386 -38 387 -40 388 -44 ct 389 -47 390 -51 391 -55 ct 
392 -58 393 -62 394 -66 ct 395 -69 397 -72 397 -74 ct 461 -243 l  503 -243 l 
503 0 l  473 0 l  p ef
748 -68 m  748 -57 746 -48 742 -39 ct 738 -31 732 -23 724 -17 ct 716 -11 705 -6 693 -2 ct 
680 1 665 3 648 3 ct 618 3 594 -2 577 -13 ct 560 -23 550 -39 545 -59 ct 577 -65 l 
579 -59 581 -53 584 -48 ct 588 -43 592 -38 598 -35 ct 604 -31 611 -28 619 -26 ct 
627 -24 637 -23 649 -23 ct 659 -23 668 -24 676 -25 ct 684 -27 691 -29 697 -33 ct 
703 -36 707 -41 711 -46 ct 714 -52 716 -58 716 -66 ct 716 -74 714 -80 710 -85 ct 
707 -90 702 -94 695 -97 ct 688 -101 681 -103 672 -105 ct 662 -108 652 -110 641 -113 ct 
635 -114 628 -116 621 -117 ct 614 -119 608 -121 601 -124 ct 595 -126 589 -129 584 -133 ct 
578 -136 573 -140 569 -145 ct 565 -149 562 -155 560 -161 ct 558 -167 556 -174 556 -182 ct 
556 -193 559 -203 563 -212 ct 568 -220 575 -227 583 -232 ct 591 -237 601 -241 612 -243 ct 
623 -246 636 -247 649 -247 ct 664 -247 677 -246 687 -243 ct 698 -241 707 -238 714 -233 ct 
722 -228 728 -222 732 -215 ct 736 -208 740 -200 743 -191 ct 710 -185 l  709 -191 706 -197 703 -201 ct 
700 -206 696 -210 691 -213 ct 686 -216 680 -218 673 -220 ct 666 -221 658 -222 648 -222 ct 
637 -222 628 -221 620 -219 ct 612 -217 606 -214 601 -211 ct 597 -208 594 -203 591 -199 ct 
589 -194 588 -189 588 -184 ct 588 -176 590 -171 594 -166 ct 598 -161 602 -157 609 -154 ct 
615 -151 622 -149 630 -146 ct 638 -144 647 -142 656 -140 ct 664 -139 671 -137 679 -135 ct 
686 -133 693 -131 700 -129 ct 707 -126 713 -123 719 -120 ct 725 -117 730 -113 734 -108 ct 
739 -103 742 -97 745 -91 ct 747 -84 748 -76 748 -68 ct p ef
pom
pum
15636 12537 t
201 0 m  173 -71 l  63 -71 l  35 0 l  1 0 l  100 -243 l  137 -243 l  235 0 l 
201 0 l  p
132 -177 m  131 -182 129 -186 127 -191 ct 125 -196 124 -200 123 -204 ct 121 -208 120 -211 120 -213 ct 
119 -216 118 -218 118 -218 ct 118 -218 117 -216 117 -213 ct 116 -211 115 -207 113 -203 ct 
112 -200 111 -195 109 -191 ct 107 -186 105 -181 104 -177 ct 73 -97 l  164 -97 l 
132 -177 l  p ef
336 -216 m  336 0 l  303 0 l  303 -216 l  220 -216 l  220 -243 l  420 -243 l 
420 -216 l  336 -216 l  p ef
452 0 m  452 -243 l  485 -243 l  485 -27 l  608 -27 l  608 0 l  452 0 l 
p ef
810 0 m  782 -71 l  672 -71 l  644 0 l  610 0 l  709 -243 l  746 -243 l 
844 0 l  810 0 l  p
741 -177 m  740 -182 738 -186 736 -191 ct 734 -196 733 -200 732 -204 ct 730 -208 729 -211 729 -213 ct 
728 -216 727 -218 727 -218 ct 727 -218 726 -216 726 -213 ct 725 -211 724 -207 722 -203 ct 
721 -200 720 -195 718 -191 ct 716 -186 714 -181 713 -177 ct 682 -97 l  773 -97 l 
741 -177 l  p ef
1066 -68 m  1066 -57 1064 -48 1060 -39 ct 1056 -31 1050 -23 1042 -17 ct 1034 -11 1023 -6 1011 -2 ct 
998 1 983 3 966 3 ct 936 3 912 -2 895 -13 ct 878 -23 868 -39 863 -59 ct 895 -65 l 
897 -59 899 -53 902 -48 ct 906 -43 910 -38 916 -35 ct 922 -31 929 -28 937 -26 ct 
945 -24 955 -23 967 -23 ct 977 -23 986 -24 994 -25 ct 1002 -27 1009 -29 1015 -33 ct 
1021 -36 1025 -41 1029 -46 ct 1032 -52 1034 -58 1034 -66 ct 1034 -74 1032 -80 1028 -85 ct 
1025 -90 1020 -94 1013 -97 ct 1006 -101 999 -103 990 -105 ct 980 -108 970 -110 959 -113 ct 
953 -114 946 -116 939 -117 ct 932 -119 926 -121 919 -124 ct 913 -126 907 -129 902 -133 ct 
896 -136 891 -140 887 -145 ct 883 -149 880 -155 878 -161 ct 876 -167 874 -174 874 -182 ct 
874 -193 877 -203 881 -212 ct 886 -220 893 -227 901 -232 ct 909 -237 919 -241 930 -243 ct 
941 -246 954 -247 967 -247 ct 982 -247 995 -246 1005 -243 ct 1016 -241 1025 -238 1032 -233 ct 
1040 -228 1046 -222 1050 -215 ct 1054 -208 1058 -200 1061 -191 ct 1028 -185 l 
1027 -191 1024 -197 1021 -201 ct 1018 -206 1014 -210 1009 -213 ct 1004 -216 998 -218 991 -220 ct 
984 -221 976 -222 966 -222 ct 955 -222 946 -221 938 -219 ct 930 -217 924 -214 919 -211 ct 
915 -208 912 -203 909 -199 ct 907 -194 906 -189 906 -184 ct 906 -176 908 -171 912 -166 ct 
916 -161 920 -157 927 -154 ct 933 -151 940 -149 948 -146 ct 956 -144 965 -142 974 -140 ct 
982 -139 989 -137 997 -135 ct 1004 -133 1011 -131 1018 -129 ct 1025 -126 1031 -123 1037 -120 ct 
1043 -117 1048 -113 1052 -108 ct 1057 -103 1060 -97 1063 -91 ct 1065 -84 1066 -76 1066 -68 ct 
p ef
pom
pum
15636 13035 t
201 0 m  173 -71 l  63 -71 l  35 0 l  1 0 l  100 -243 l  137 -243 l  235 0 l 
201 0 l  p
132 -177 m  131 -182 129 -186 127 -191 ct 125 -196 124 -200 123 -204 ct 121 -208 120 -211 120 -213 ct 
119 -216 118 -218 118 -218 ct 118 -218 117 -216 117 -213 ct 116 -211 115 -207 113 -203 ct 
112 -200 111 -195 109 -191 ct 107 -186 105 -181 104 -177 ct 73 -97 l  164 -97 l 
132 -177 l  p ef
267 0 m  267 -243 l  300 -243 l  300 -27 l  423 -27 l  423 0 l  267 0 l 
p ef
456 0 m  456 -243 l  489 -243 l  489 0 l  456 0 l  p ef
666 -220 m  652 -220 640 -218 629 -213 ct 618 -209 609 -202 602 -194 ct 595 -185 590 -175 586 -163 ct 
582 -151 580 -138 580 -123 ct 580 -108 582 -95 586 -83 ct 590 -71 596 -60 603 -52 ct 
611 -43 620 -36 631 -31 ct 641 -26 653 -24 667 -24 ct 676 -24 685 -25 693 -28 ct 
700 -30 707 -34 714 -38 ct 720 -43 726 -48 730 -54 ct 735 -60 740 -67 744 -75 ct 
770 -61 l  766 -52 761 -44 754 -36 ct 748 -28 740 -21 732 -15 ct 723 -10 713 -5 702 -2 ct 
691 1 679 3 665 3 ct 646 3 628 0 614 -6 ct 599 -13 587 -21 577 -33 ct 567 -44 559 -57 554 -73 ct 
549 -88 547 -105 547 -123 ct 547 -142 550 -159 555 -174 ct 560 -190 568 -203 578 -213 ct 
588 -224 600 -232 615 -238 ct 630 -244 646 -247 665 -247 ct 691 -247 713 -242 730 -232 ct 
747 -222 760 -207 768 -187 ct 737 -176 l  735 -182 732 -188 728 -193 ct 724 -198 719 -203 713 -207 ct 
707 -211 700 -214 692 -216 ct 685 -219 676 -220 666 -220 ct p ef
796 0 m  796 -243 l  980 -243 l  980 -216 l  829 -216 l  829 -138 l  970 -138 l 
970 -111 l  829 -111 l  829 -27 l  987 -27 l  987 0 l  796 0 l  p ef
pom
pum
15636 13533 t
217 -170 m  217 -160 215 -150 212 -141 ct 208 -131 203 -124 196 -117 ct 189 -110 180 -105 170 -101 ct 
159 -97 147 -95 133 -95 ct 62 -95 l  62 -1 l  29 -1 l  29 -243 l  131 -243 l 
146 -243 158 -242 169 -238 ct 179 -235 188 -230 195 -223 ct 203 -217 208 -209 211 -200 ct 
215 -191 217 -181 217 -170 ct p
184 -170 m  184 -185 179 -197 170 -205 ct 160 -213 146 -217 127 -217 ct 62 -217 l 
62 -121 l  129 -121 l  148 -121 161 -125 170 -134 ct 179 -142 184 -154 184 -170 ct 
p ef
267 0 m  267 -243 l  300 -243 l  300 -27 l  423 -27 l  423 0 l  267 0 l 
p ef
452 0 m  452 -243 l  636 -243 l  636 -216 l  485 -216 l  485 -138 l  626 -138 l 
626 -111 l  485 -111 l  485 -27 l  643 -27 l  643 0 l  452 0 l  p ef
899 -124 m  899 -104 896 -86 890 -70 ct 884 -55 875 -42 865 -32 ct 854 -21 842 -13 827 -8 ct 
813 -3 797 0 781 0 ct 690 0 l  690 -243 l  770 -243 l  789 -243 806 -241 822 -236 ct 
838 -231 851 -224 863 -214 ct 874 -205 883 -192 889 -177 ct 896 -163 899 -145 899 -124 ct 
p
866 -124 m  866 -140 864 -155 859 -166 ct 854 -178 848 -187 839 -195 ct 831 -202 820 -208 809 -211 ct 
797 -215 784 -217 770 -217 ct 723 -217 l  723 -26 l  777 -26 l  790 -26 802 -28 812 -33 ct 
823 -37 833 -43 841 -51 ct 849 -59 855 -69 859 -82 ct 864 -94 866 -108 866 -124 ct 
p ef
918 -123 m  918 -142 920 -159 925 -174 ct 931 -190 938 -203 948 -213 ct 959 -224 971 -232 986 -238 ct 
1001 -244 1019 -247 1039 -247 ct 1054 -247 1067 -246 1078 -243 ct 1089 -240 1099 -237 1107 -232 ct 
1115 -227 1122 -221 1128 -214 ct 1134 -207 1139 -199 1143 -190 ct 1111 -180 l 
1109 -186 1105 -192 1101 -197 ct 1097 -202 1091 -206 1085 -209 ct 1079 -213 1073 -215 1065 -217 ct 
1057 -219 1048 -220 1038 -220 ct 1023 -220 1010 -218 999 -213 ct 989 -209 980 -202 972 -194 ct 
965 -185 960 -175 956 -163 ct 953 -151 951 -138 951 -123 ct 951 -108 953 -95 957 -83 ct 
961 -71 966 -60 974 -52 ct 981 -43 991 -36 1002 -31 ct 1013 -26 1026 -24 1040 -24 ct 
1050 -24 1058 -25 1067 -26 ct 1075 -28 1082 -30 1088 -32 ct 1095 -35 1101 -38 1105 -41 ct 
1110 -44 1115 -47 1118 -51 ct 1118 -94 l  1045 -94 l  1045 -122 l  1148 -122 l 
1148 -38 l  1143 -33 1136 -27 1129 -22 ct 1122 -17 1114 -13 1105 -9 ct 1096 -5 1086 -2 1075 0 ct 
1064 2 1052 3 1040 3 ct 1020 3 1002 0 987 -6 ct 971 -13 959 -21 948 -33 ct 938 -44 931 -57 925 -73 ct 
920 -88 918 -105 918 -123 ct p ef
1193 0 m  1193 -243 l  1377 -243 l  1377 -216 l  1226 -216 l  1226 -138 l 
1367 -138 l  1367 -111 l  1226 -111 l  1226 -27 l  1384 -27 l  1384 0 l 
1193 0 l  p ef
pom
pum
2204 12246 t
90.0 r 112 -194 m  112 1 l  82 1 l  82 -194 l  7 -194 l  7 -218 l  187 -218 l 
187 -194 l  112 -194 l  p ef
380 -62 m  380 -51 378 -41 374 -33 ct 369 -26 364 -19 356 -14 ct 349 -9 340 -6 331 -3 ct 
321 -1 311 0 300 0 ct 211 0 l  211 -219 l  291 -219 l  303 -219 314 -218 323 -216 ct 
333 -214 341 -211 347 -206 ct 354 -202 359 -196 362 -190 ct 366 -183 368 -175 368 -166 ct 
368 -160 367 -154 365 -149 ct 363 -143 361 -138 357 -134 ct 354 -130 349 -126 344 -123 ct 
339 -120 333 -117 326 -116 ct 335 -115 343 -113 349 -110 ct 356 -107 362 -103 366 -98 ct 
371 -93 374 -88 377 -82 ct 379 -76 380 -69 380 -62 ct p
338 -162 m  338 -174 334 -182 326 -187 ct 318 -192 306 -195 291 -195 ct 241 -195 l 
241 -126 l  291 -126 l  299 -126 307 -127 313 -129 ct 319 -130 324 -133 327 -136 ct 
331 -139 334 -143 335 -147 ct 337 -152 338 -157 338 -162 ct p
350 -64 m  350 -71 349 -77 347 -82 ct 344 -87 340 -91 336 -94 ct 331 -97 325 -99 318 -101 ct 
312 -102 304 -103 296 -103 ct 241 -103 l  241 -24 l  298 -24 l  306 -24 313 -24 319 -26 ct 
326 -27 331 -29 336 -32 ct 340 -35 344 -39 346 -45 ct 349 -50 350 -56 350 -64 ct 
p ef
pom
0 9000 t 
pom
count op_count sub {pop} repeat countdictstack dict_count sub {end} repeat b4_inc_state restore
%%PageTrailer
%%Trailer
%%EOF
