%!PS-Adobe-2.0 EPSF-2.0
%%BoundingBox:  0 0 567 283
%%Title: /home/noferini/working/consCNAFeee/plot/EEEpilotrun.eps: c1
%%Creator: ROOT Version 5.34/14
%%CreationDate: Mon Sep  7 12:45:23 2015
%%EndComments
%%BeginProlog
80 dict begin
/s {stroke} def /l {lineto} def /m {moveto} def /t {translate} def
/r {rotate} def /rl {roll}  def /R {repeat} def
/d {rlineto} def /rm {rmoveto} def /gr {grestore} def /f {eofill} def
/c {setrgbcolor} def /black {0 setgray} def /sd {setdash} def
/cl {closepath} def /sf {scalefont setfont} def /lw {setlinewidth} def
/box {m dup 0 exch d exch 0 d 0 exch neg d cl} def
/NC{systemdict begin initclip end}def/C{NC box clip newpath}def
/bl {box s} def /bf {box f} def /Y { 0 exch d} def /X { 0 d} def 
/K {{pop pop 0 moveto} exch kshow} bind def
/ita {/ang 15 def gsave [1 0 ang dup sin exch cos div 1 0 0] concat} def 
/mp {newpath /y exch def /x exch def} def
/side {[w .77 mul w .23 mul] .385 w mul sd w 0 l currentpoint t -144 r} def
/mr {mp x y w2 0 360 arc} def /m24 {mr s} def /m20 {mr f} def
/mb {mp x y w2 add m w2 neg 0 d 0 w neg d w 0 d 0 w d cl} def
/mt {mp x y w2 add m w2 neg w neg d w 0 d cl} def
/m21 {mb f} def /m25 {mb s} def /m22 {mt f} def /m26{mt s} def
/m23 {mp x y w2 sub m w2 w d w neg 0 d cl f} def
/m27 {mp x y w2 add m w3 neg w2 neg d w3 w2 neg d w3 w2 d cl s} def
/m28 {mp x w2 sub y w2 sub w3 add m w3 0 d  0 w3 neg d w3 0 d 0 w3 d w3 0 d  0 w3 d w3 neg 0 d 0 w3 d w3 neg 0 d 0 w3 neg d w3 neg 0 d cl s } def
/m29 {mp gsave x w2 sub y w2 add w3 sub m currentpoint t 4 {side} repeat cl fill gr} def
/m30 {mp gsave x w2 sub y w2 add w3 sub m currentpoint t 4 {side} repeat cl s gr} def
/m31 {mp x y w2 sub m 0 w d x w2 sub y m w 0 d x w2 sub y w2 add m w w neg d x w2 sub y w2 sub m w w d s} def
/m32 {mp x y w2 sub m w2 w d w neg 0 d cl s} def
/m33 {mp x y w2 add m w3 neg w2 neg d w3 w2 neg d w3 w2 d cl f} def
/m34 {mp x w2 sub y w2 sub w3 add m w3 0 d  0 w3 neg d w3 0 d 0 w3 d w3 0 d  0 w3 d w3 neg 0 d 0 w3 d w3 neg 0 d 0 w3 neg d w3 neg 0 d cl f } def
/m2 {mp x y w2 sub m 0 w d x w2 sub y m w 0 d s} def
/m5 {mp x w2 sub y w2 sub m w w d x w2 sub y w2 add m w w neg d s} def
/reEncode {exch findfont dup length dict begin {1 index /FID eq  {pop pop} {def} ifelse } forall /Encoding exch def currentdict end dup /FontName get exch definefont pop } def [/Times-Bold /Times-Italic /Times-BoldItalic /Helvetica /Helvetica-Oblique
 /Helvetica-Bold /Helvetica-BoldOblique /Courier /Courier-Oblique /Courier-Bold /Courier-BoldOblique /Times-Roman /AvantGarde-Book /AvantGarde-BookOblique /AvantGarde-Demi /AvantGarde-DemiOblique /Bookman-Demi /Bookman-DemiItalic /Bookman-Light
 /Bookman-LightItalic /Helvetica-Narrow /Helvetica-Narrow-Bold /Helvetica-Narrow-BoldOblique /Helvetica-Narrow-Oblique /NewCenturySchlbk-Roman /NewCenturySchlbk-Bold /NewCenturySchlbk-BoldItalic /NewCenturySchlbk-Italic /Palatino-Bold
 /Palatino-BoldItalic /Palatino-Italic /Palatino-Roman ] {ISOLatin1Encoding reEncode } forall
%%EndProlog
%%BeginSetup
%%EndSetup
newpath  gsave  .25 .25 scale  gsave  0 0 t black[  ] 0 sd 3 lw 1 1 1 c 2268 1133 0 0 bf black 1 1 1 c 1933 730 242 311 bf black 1933 730 242 311 bl 1 1 1 c 1933 730 242 311 bf black 1933 730 242 311 bl 0 0 0.6 c 12 lw 1 1 1 c black 0 0 0.6 c 242 808
 m 60 X -2 Y 61 X 73 Y 60 X 31 Y 60 X -77 Y 61 X -29 Y 60 X 1 Y 61 X 53 Y 60 X -104 Y 60 X 112 Y 61 X -107 Y 60 X 49 Y 61 X -51 Y 60 X 23 Y 60 X 107 Y 61 X 117 Y 60 X -120 Y 61 X 5 Y 60 X -31 Y 60 X -28 Y 61 X -16 Y 60 X 122 Y 61 X -75 Y 60 X 5 Y 60
 X 44 Y 121 X -80 Y 61 X -13 Y 60 X -37 Y 60 X -52 Y 61 X -52 Y 60 X 39 Y 61 X s black 3 lw 242 311 m 1933 X s
 gsave  2268 1133 0 0 C 1155.56 22.7392 t 0 r /Helvetica findfont 64.0831 sf 0 0 m (day) show NC gr 
 gsave  2268 1133 0 0 C 283.206 128.166 t 90 r /Helvetica findfont 35.1424 sf 0 0 m (2014\25510\25521) show NC gr 
 gsave  2268 1133 0 0 C 343.155 121.965 t 90 r /Helvetica findfont 35.1424 sf 0 0 m (2014\25510\25522) show NC gr 
 gsave  2268 1133 0 0 C 405.171 121.965 t 90 r /Helvetica findfont 35.1424 sf 0 0 m (2014\25510\25523) show NC gr 
 gsave  2268 1133 0 0 C 465.12 121.965 t 90 r /Helvetica findfont 35.1424 sf 0 0 m (2014\25510\25524) show NC gr 
 gsave  2268 1133 0 0 C 525.068 121.965 t 90 r /Helvetica findfont 35.1424 sf 0 0 m (2014\25510\25525) show NC gr 
 gsave  2268 1133 0 0 C 585.017 121.965 t 90 r /Helvetica findfont 35.1424 sf 0 0 m (2014\25510\25526) show NC gr 
 gsave  2268 1133 0 0 C 644.966 121.965 t 90 r /Helvetica findfont 35.1424 sf 0 0 m (2014\25510\25527) show NC gr 
 gsave  2268 1133 0 0 C 706.982 121.965 t 90 r /Helvetica findfont 35.1424 sf 0 0 m (2014\25510\25528) show NC gr 
 gsave  2268 1133 0 0 C 766.931 121.965 t 90 r /Helvetica findfont 35.1424 sf 0 0 m (2014\25510\25529) show NC gr 
 gsave  2268 1133 0 0 C 826.879 121.965 t 90 r /Helvetica findfont 35.1424 sf 0 0 m (2014\25510\25530) show NC gr 
 gsave  2268 1133 0 0 C 886.828 128.166 t 90 r /Helvetica findfont 35.1424 sf 0 0 m (2014\25510\25531) show NC gr 
 gsave  2268 1133 0 0 C 948.844 128.166 t 90 r /Helvetica findfont 35.1424 sf 0 0 m (2014\25511\25501) show NC gr 
 gsave  2268 1133 0 0 C 1008.79 121.965 t 90 r /Helvetica findfont 35.1424 sf 0 0 m (2014\25511\25502) show NC gr 
 gsave  2268 1133 0 0 C 1068.74 121.965 t 90 r /Helvetica findfont 35.1424 sf 0 0 m (2014\25511\25503) show NC gr 
 gsave  2268 1133 0 0 C 1128.69 121.965 t 90 r /Helvetica findfont 35.1424 sf 0 0 m (2014\25511\25504) show NC gr 
 gsave  2268 1133 0 0 C 1188.64 121.965 t 90 r /Helvetica findfont 35.1424 sf 0 0 m (2014\25511\25505) show NC gr 
 gsave  2268 1133 0 0 C 1250.66 121.965 t 90 r /Helvetica findfont 35.1424 sf 0 0 m (2014\25511\25506) show NC gr 
 gsave  2268 1133 0 0 C 1310.6 121.965 t 90 r /Helvetica findfont 35.1424 sf 0 0 m (2014\25511\25507) show NC gr 
 gsave  2268 1133 0 0 C 1370.55 121.965 t 90 r /Helvetica findfont 35.1424 sf 0 0 m (2014\25511\25508) show NC gr 
 gsave  2268 1133 0 0 C 1430.5 121.965 t 90 r /Helvetica findfont 35.1424 sf 0 0 m (2014\25511\25509) show NC gr 
 gsave  2268 1133 0 0 C 1490.45 121.965 t 90 r /Helvetica findfont 35.1424 sf 0 0 m (2014\25511\25510) show NC gr 
 gsave  2268 1133 0 0 C 1552.47 128.166 t 90 r /Helvetica findfont 35.1424 sf 0 0 m (2014\25511\25511) show NC gr 
 gsave  2268 1133 0 0 C 1612.41 121.965 t 90 r /Helvetica findfont 35.1424 sf 0 0 m (2014\25511\25512) show NC gr 
 gsave  2268 1133 0 0 C 1672.36 121.965 t 90 r /Helvetica findfont 35.1424 sf 0 0 m (2014\25511\25513) show NC gr 
 gsave  2268 1133 0 0 C 1732.31 121.965 t 90 r /Helvetica findfont 35.1424 sf 0 0 m (2014\25511\25514) show NC gr 
 gsave  2268 1133 0 0 C 1794.33 121.965 t 90 r /Helvetica findfont 35.1424 sf 0 0 m (2014\25511\25515) show NC gr 
 gsave  2268 1133 0 0 C 1854.28 121.965 t 90 r /Helvetica findfont 35.1424 sf 0 0 m (2014\25511\25516) show NC gr 
 gsave  2268 1133 0 0 C 1914.23 121.965 t 90 r /Helvetica findfont 35.1424 sf 0 0 m (2014\25511\25517) show NC gr 
 gsave  2268 1133 0 0 C 1974.17 121.965 t 90 r /Helvetica findfont 35.1424 sf 0 0 m (2014\25511\25518) show NC gr 
 gsave  2268 1133 0 0 C 2034.12 121.965 t 90 r /Helvetica findfont 35.1424 sf 0 0 m (2014\25511\25519) show NC gr 
 gsave  2268 1133 0 0 C 2096.14 121.965 t 90 r /Helvetica findfont 35.1424 sf 0 0 m (2014\25511\25520) show NC gr 
 gsave  2268 1133 0 0 C 2156.09 128.166 t 90 r /Helvetica findfont 35.1424 sf 0 0 m (2014\25511\25521) show NC gr  242 340 m -29 Y s 302 340 m -29 Y s 363 340 m -29 Y s 423 340 m -29 Y s 483 340 m -29 Y s 544 340 m -29 Y s 604 340 m -29 Y s 665 340 m
 -29 Y s 725 340 m -29 Y s 785 340 m -29 Y s 846 340 m -29 Y s 906 340 m -29 Y s 967 340 m -29 Y s 1027 340 m -29 Y s 1087 340 m -29 Y s 1148 340 m -29 Y s 1208 340 m -29 Y s 1269 340 m -29 Y s 1329 340 m -29 Y s 1389 340 m -29 Y s 1450 340 m -29 Y s
 1510 340 m -29 Y s 1571 340 m -29 Y s 1631 340 m -29 Y s 1691 340 m -29 Y s 1752 340 m -29 Y s 1812 340 m -29 Y s 1873 340 m -29 Y s 1933 340 m -29 Y s 1993 340 m -29 Y s 2054 340 m -29 Y s 2114 340 m -29 Y s 2175 340 m -29 Y s 242 311 m 730 Y s
 gsave  2268 1133 0 0 C 82.6879 613.958 t 90 r /Helvetica findfont 64.0831 sf 0 0 m (N. files per day) show NC gr  286 311 m -44 X s 264 337 m -22 X s 264 363 m -22 X s 264 389 m -22 X s 286 415 m -44 X s 264 441 m -22 X s 264 468 m -22 X s 264 494 m
 -22 X s 286 520 m -44 X s 264 546 m -22 X s 264 572 m -22 X s 264 598 m -22 X s 286 624 m -44 X s 264 650 m -22 X s 264 676 m -22 X s 264 702 m -22 X s 286 728 m -44 X s 264 754 m -22 X s 264 780 m -22 X s 264 806 m -22 X s 286 832 m -44 X s 264 858
 m -22 X s 264 884 m -22 X s 264 910 m -22 X s 286 936 m -44 X s 264 962 m -22 X s 264 988 m -22 X s 264 1014 m -22 X s 286 1041 m -44 X s
 gsave  2268 1133 0 0 C 206.72 295.609 t 0 r /Helvetica findfont 41.344 sf 0 0 m (0) show NC gr 
 gsave  2268 1133 0 0 C 161.241 398.969 t 0 r /Helvetica findfont 41.344 sf 0 0 m (200) show NC gr 
 gsave  2268 1133 0 0 C 161.241 504.396 t 0 r /Helvetica findfont 41.344 sf 0 0 m (400) show NC gr 
 gsave  2268 1133 0 0 C 161.241 607.756 t 0 r /Helvetica findfont 41.344 sf 0 0 m (600) show NC gr 
 gsave  2268 1133 0 0 C 161.241 713.183 t 0 r /Helvetica findfont 41.344 sf 0 0 m (800) show NC gr 
 gsave  2268 1133 0 0 C 138.502 816.543 t 0 r /Helvetica findfont 41.344 sf 0 0 m (1000) show NC gr 
 gsave  2268 1133 0 0 C 138.502 919.903 t 0 r /Helvetica findfont 41.344 sf 0 0 m (1200) show NC gr 
 gsave  2268 1133 0 0 C 138.502 1025.33 t 0 r /Helvetica findfont 41.344 sf 0 0 m (1400) show NC gr  1 1 1 c black
 gsave  2268 1133 0 0 C 688.377 1077.01 t 0 r /Helvetica findfont 55.8144 sf 0 0 m (N. files per day transferred at CNAF) show NC gr  6 lw 604 311 m 730 Y s 1752 311 m 730 Y s 3 lw 652 468 m 1052 X s 1704 488 m 48 -20 d -48 -21 d f 1704 488 m 48 -20
 d -48 -21 d 41 Y cl s 652 447 m -48 21 d 48 20 d f 652 447 m -48 21 d 48 20 d -41 Y cl s 1 1 1 c black
 gsave  2268 1133 0 0 C 907.5 506.464 t 0 r /Helvetica-Bold findfont 88.8895 sf 0 0 m (EEE pilot run) show NC gr 
 gr  gr showpage
end
%%EOF
